<?xml version="1.0" encoding="utf-8"?>
<!-- Generator: Adobe Illustrator 19.1.0, SVG Export Plug-In . SVG Version: 6.00 Build 0)  -->
<svg version="1.1" id="LOGO" xmlns="http://www.w3.org/2000/svg" xmlns:xlink="http://www.w3.org/1999/xlink" x="0px" y="0px"
	 viewBox="0 0 398 115.3" style="enable-background:new 0 0 398 115.3;" xml:space="preserve">
<style type="text/css">
	.st0{display:none;}
	.st1{display:inline;}
	.st2{fill:#004282;}
	.st3{fill:#FFFFFF;}
	.st4{fill:#6F3D24;}
	.st5{fill:#F58220;}
	.st6{fill:none;}
	.st7{fill-rule:evenodd;clip-rule:evenodd;fill:#F58220;}
	.st8{fill-rule:evenodd;clip-rule:evenodd;fill:#00B6BE;}
</style>
<g class="st0">
	<g class="st1">
		<g>
			<g>
				<polygon class="st2" points="85.3,63.3 86.9,63.3 90.6,70 90.6,70 90.6,63.3 91.8,63.3 91.8,71.7 90.3,71.7 86.5,64.8 
					86.5,64.8 86.5,71.7 85.3,71.7 				"/>
				<path class="st2" d="M94.2,66.9c0.5-0.4,1.1-0.6,1.8-0.6c1.1,0,1.5,0.5,1.5,1.6c-0.4,0-0.8,0-1.2,0c-1.2,0-2.8,0.5-2.8,2
					c0,1.3,0.9,1.9,2.2,1.9c1,0,1.6-0.6,1.9-0.9h0v0.8h1.1c0-0.2-0.1-0.5-0.1-1.2v-2.5c0-1.7-0.7-2.5-2.4-2.5c-0.8,0-1.4,0.2-2,0.6
					L94.2,66.9 M97.4,69.3c0,0.9-0.6,1.6-1.7,1.6c-0.5,0-1.1-0.4-1.1-1c0-1.1,1.5-1.2,2.1-1.2c0.2,0,0.5,0,0.7,0V69.3z"/>
				<path class="st2" d="M103.7,66.5h-1.6v3.3c0,0.7,0.4,1.1,0.9,1.1c0.4,0,0.6-0.1,0.8-0.2v1c-0.2,0.1-0.6,0.2-1,0.2
					c-1.2,0-1.9-0.6-1.9-1.8v-3.6h-1.4v-0.9h1.4v-1.4l1.1-0.4v1.8h1.6V66.5"/>
				<path class="st2" d="M105.2,64.2h1.3v-1.3h-1.3V64.2z M105.3,71.7h1.1v-6.1h-1.1V71.7z"/>
				<path class="st2" d="M108,68.6c0,1.7,1.3,3.2,3.1,3.2c1.8,0,3.1-1.4,3.1-3.2c0-1.9-1.3-3.2-3.1-3.2
					C109.3,65.4,108,66.8,108,68.6 M109.2,68.6c0-1.2,0.7-2.3,1.9-2.3c1.2,0,1.9,1.1,1.9,2.3c0,1.1-0.6,2.3-1.9,2.3
					C109.8,70.9,109.2,69.7,109.2,68.6"/>
				<path class="st2" d="M115.7,65.6h1.1v1h0c0.3-0.7,1.1-1.1,2-1.1c1.6,0,2.3,1,2.3,2.6v3.6H120v-3.2c0-1.4-0.3-2.1-1.3-2.2
					c-1.3,0-1.8,1-1.8,2.5v2.8h-1.1V65.6"/>
				<path class="st2" d="M123.4,66.9c0.4-0.4,1.1-0.6,1.8-0.6c1.1,0,1.5,0.5,1.5,1.6c-0.4,0-0.8,0-1.2,0c-1.2,0-2.8,0.5-2.8,2
					c0,1.3,0.9,1.9,2.2,1.9c1,0,1.6-0.6,1.9-0.9h0v0.8h1.1c0-0.2-0.1-0.5-0.1-1.2v-2.5c0-1.7-0.7-2.5-2.4-2.5c-0.8,0-1.4,0.2-2,0.6
					L123.4,66.9 M126.6,69.3c0,0.9-0.6,1.6-1.7,1.6c-0.5,0-1.1-0.4-1.1-1c0-1.1,1.5-1.2,2.1-1.2c0.2,0,0.5,0,0.7,0V69.3z"/>
				<rect x="129.8" y="62.7" class="st2" width="1.1" height="9"/>
				<path class="st2" d="M142.6,68.2c0,2.3-1.2,3.6-3.2,3.6c-2.1,0-3.2-1.3-3.2-3.6v-4.9h1.2V68c0,1.6,0.5,2.7,2,2.7
					c1.5,0,2-1.1,2-2.7v-4.7h1.2V68.2"/>
				<path class="st2" d="M144.6,65.6h1.1v1h0c0.3-0.7,1.2-1.1,2-1.1c1.6,0,2.3,1,2.3,2.6v3.6h-1.1v-3.2c0-1.4-0.3-2.1-1.3-2.2
					c-1.3,0-1.9,1-1.9,2.5v2.8h-1.1V65.6"/>
				<path class="st2" d="M152,62.9h1.3v1.3H152V62.9z M152,65.6h1.1v6.1H152V65.6z"/>
				<polygon class="st2" points="157.9,71.7 156.6,71.7 154.4,65.6 155.6,65.6 157.3,70.5 157.3,70.5 159,65.6 160.1,65.6 				"/>
				<path class="st2" d="M165.9,70.3c-0.3,0.2-1.1,0.6-1.9,0.6c-1.1,0-2-0.8-2-2h4.4c0-2-0.7-3.4-2.7-3.4c-1.7,0-2.9,1.3-2.9,3.1
					c0,2,1,3.3,3.2,3.3c1,0,1.5-0.2,1.9-0.4V70.3 M162,68c0.1-0.8,0.5-1.7,1.6-1.7c1,0,1.5,0.8,1.5,1.7H162z"/>
				<path class="st2" d="M167.8,65.6h1v0.9h0c0.3-0.6,0.9-1.1,1.6-1.1c0.3,0,0.5,0,0.7,0.1v1c-0.2-0.1-0.4-0.1-0.6-0.1
					c-1,0-1.7,0.9-1.7,2.5v2.8h-1.1V65.6"/>
				<path class="st2" d="M172,70.5c0.4,0.3,1.1,0.4,1.4,0.4c0.5,0,1.1-0.2,1.1-0.9c0-1.1-2.6-1-2.6-2.7c0-1.3,0.9-1.9,2.1-1.9
					c0.5,0,1,0.1,1.4,0.2l-0.1,1c-0.2-0.2-0.9-0.3-1.2-0.3c-0.6,0-1.1,0.2-1.1,0.7c0,1.2,2.6,0.9,2.6,2.8c0,1.3-1,1.9-2.1,1.9
					c-0.6,0-1.1-0.1-1.7-0.3L172,70.5"/>
				<path class="st2" d="M177.2,62.9h1.3v1.3h-1.3V62.9z M177.3,65.6h1.1v6.1h-1.1V65.6z"/>
				<path class="st2" d="M183.7,66.5h-1.6v3.3c0,0.7,0.4,1.1,0.9,1.1c0.3,0,0.6-0.1,0.8-0.2v1c-0.3,0.1-0.6,0.2-1,0.2
					c-1.2,0-1.9-0.6-1.9-1.8v-3.6h-1.4v-0.9h1.4v-1.4l1.1-0.4v1.8h1.6V66.5"/>
				<path class="st2" d="M184.6,73.3c0.1,0,0.3,0.1,0.5,0.1c1,0,1.3-1.4,1.3-1.5c0-0.1-0.2-0.4-0.2-0.6l-2.1-5.7h1.2l1.6,5h0l1.7-5
					h1.1l-2.2,6.2c-0.4,1.2-0.9,2.5-2.3,2.5c-0.4,0-0.6,0-0.8-0.1L184.6,73.3"/>
				<path class="st2" d="M84.8,82.7c0,1.7,1.3,3.2,3.1,3.2c1.8,0,3.1-1.4,3.1-3.2c0-1.9-1.2-3.2-3.1-3.2
					C86,79.5,84.8,80.9,84.8,82.7 M86,82.7c0-1.2,0.7-2.3,1.9-2.3c1.2,0,1.9,1.1,1.9,2.3c0,1.1-0.6,2.3-1.9,2.3
					C86.6,85,86,83.8,86,82.7"/>
				<path class="st2" d="M93.2,80.6h-1.4v-0.9h1.4v-0.6c0-1.5,0.4-2.4,2-2.4c0.3,0,0.5,0,0.8,0.1l0,0.9c-0.1,0-0.3-0.1-0.5-0.1
					c-1,0-1.1,0.6-1.1,1.5v0.7H96v0.9h-1.6v5.2h-1.1V80.6"/>
				<path class="st2" d="M104,78.7c-0.6-0.2-0.9-0.3-1.6-0.3c-0.7,0-1.4,0.2-1.4,1.1c0,1.6,3.6,1.2,3.6,4c0,1.8-1.4,2.5-3,2.5
					c-0.6,0-1.2-0.2-1.7-0.3l0.1-1.1c0.4,0.2,1.1,0.4,1.7,0.4c0.7,0,1.6-0.4,1.6-1.4c0-1.9-3.6-1.3-3.6-3.9c0-1.5,1.2-2.3,2.7-2.3
					c0.6,0,1.2,0.1,1.8,0.3L104,78.7"/>
				<path class="st2" d="M106.2,77.1h1.3v1.3h-1.3V77.1z M106.2,79.7h1.1v6.1h-1.1V79.7z"/>
				<path class="st2" d="M109.4,79.7h1.1v1h0c0.3-0.7,1.1-1.1,2-1.1c1.6,0,2.3,1,2.3,2.6v3.6h-1.1v-3.1c0-1.4-0.3-2.1-1.3-2.2
					c-1.3,0-1.8,1-1.8,2.5v2.8h-1.1V79.7"/>
				<path class="st2" d="M122.1,79.7h-1v0.9h0c-0.3-0.7-0.9-1.1-2-1.1c-1.8,0-2.7,1.7-2.7,3.2c0,1.6,0.9,3,2.6,3c0.8,0,1.6-0.3,2-1
					h0v0.6c0,1.3-0.7,2.1-1.9,2.1c-0.8,0-1.3-0.2-2.2-0.5l-0.1,1c1,0.3,1.5,0.4,2.2,0.4c2.2,0,3.1-1.1,3.1-2.9V79.7 M119.2,84.9
					c-1,0-1.7-1-1.7-2.2c0-1,0.6-2.3,1.7-2.3c1.2,0,1.8,1.1,1.8,2.4C121,83.9,120.3,84.9,119.2,84.9"/>
				<path class="st2" d="M124.4,81.1c0.5-0.4,1.1-0.6,1.8-0.6c1.1,0,1.5,0.5,1.5,1.6c-0.4,0-0.8,0-1.2,0c-1.2,0-2.8,0.5-2.8,2
					c0,1.3,0.9,1.9,2.2,1.9c1,0,1.6-0.6,1.9-0.9h0v0.8h1c0-0.2,0-0.5,0-1.2V82c0-1.7-0.7-2.5-2.5-2.5c-0.8,0-1.4,0.2-2,0.6
					L124.4,81.1 M127.6,83.4c0,0.9-0.6,1.6-1.7,1.6c-0.5,0-1.1-0.3-1.1-1c0-1.1,1.5-1.2,2.1-1.2c0.2,0,0.5,0,0.7,0V83.4z"/>
				<path class="st2" d="M130.7,88.3h1.1v-3.3h0c0.4,0.6,1,1,2,1c1.8,0,2.6-1.6,2.6-3.3c0-1.6-0.9-3.1-2.6-3.1c-1.1,0-1.8,0.6-2.1,1
					h0v-0.9h-1.1V88.3 M135.3,82.7c0,1-0.5,2.3-1.7,2.3c-1.3,0-1.8-1.3-1.8-2.3c0-1.1,0.6-2.3,1.8-2.3
					C134.8,80.4,135.3,81.6,135.3,82.7"/>
				<path class="st2" d="M137.6,82.7c0,1.7,1.3,3.2,3.1,3.2c1.8,0,3.1-1.4,3.1-3.2c0-1.9-1.2-3.2-3.1-3.2
					C138.8,79.5,137.6,80.9,137.6,82.7 M138.7,82.7c0-1.2,0.7-2.3,1.9-2.3c1.2,0,1.9,1.1,1.9,2.3c0,1.1-0.6,2.3-1.9,2.3
					C139.3,85,138.7,83.8,138.7,82.7"/>
				<path class="st2" d="M145.3,79.7h1v1h0c0.3-0.6,0.9-1.1,1.6-1.1c0.3,0,0.5,0,0.7,0.1v1c-0.2-0.1-0.4-0.1-0.6-0.1
					c-1,0-1.7,1-1.7,2.5v2.8h-1.1V79.7"/>
				<path class="st2" d="M154.6,84.4c-0.3,0.2-1.1,0.6-1.9,0.6c-1.1,0-2-0.8-2-2h4.3c0-2-0.7-3.4-2.7-3.4c-1.7,0-2.8,1.3-2.8,3.1
					c0,2,1,3.3,3.2,3.3c1,0,1.5-0.2,1.9-0.4V84.4 M150.7,82.1c0.1-0.8,0.5-1.7,1.6-1.7c1,0,1.5,0.8,1.5,1.7H150.7z"/>
				<path class="st2" d="M162.5,46.7c2.3,2.1,6.8,4,12.3,4.1c4.8,0.1,8.7-1.4,8.9-5.4c0.5-8.7-21.7-5.2-20.8-19.8
					c0.4-7.3,7.7-9.7,15.5-9.6c4.2,0.1,8.5,1.1,10.8,2.3l0,5.2c-2.8-1.9-6.8-3.2-10-3.2c-5-0.1-8.9,0.8-9,4.5
					c-0.1,7.6,22.3,5.8,21.4,20.3c-0.5,8.2-8.4,10.7-16.7,10.5c-4.8-0.1-9.4-1-12.4-2.5L162.5,46.7"/>
				<path class="st2" d="M141.5,55.5c-10.3,0-16.3-4.6-16.3-14.2V17.2h7.7v24.2c0,5.9,2.8,9.5,8.5,9.5c5.7,0,8.5-3.6,8.5-9.5l0-24.2
					h7.7v24.2C157.7,50.9,151.8,55.5,141.5,55.5"/>
				<path class="st2" d="M112.7,17.2v27.2L94.9,19.1c-0.8-1.2-2.2-1.9-3.8-1.9h-5.9v37.2h5.2V27l17.7,25.2c0.8,1.2,2.2,2,3.8,2h5.8
					V17.2H112.7"/>
				<path class="st2" d="M76.4,55.8V17.3H13.8v38.5v0.3c0,1.8,0.4,11.4,8.1,23.6c8.4,13.3,22.4,17.4,23,17.6l0.2,0.1l0.2-0.1
					c0.6-0.2,14.6-4.3,23-17.6C76.7,66.4,76.5,56.2,76.4,55.8"/>
				<path class="st3" d="M67,78.5c-7.6,12-20.2,16.3-22,16.9c-1.7-0.6-14.3-4.9-21.9-16.9c-7.6-12-7.9-21.6-7.9-22.9v-0.2V41.9h59.6
					v13.6v0.2C74.8,57,74.6,66.6,67,78.5"/>
				<path class="st4" d="M57.5,47.5L57.5,47.5L57.5,47.5z"/>
				<path class="st5" d="M43.1,21.7c-0.1,0-2.7-0.5-5.7-0.5c-2.4,0-4.6,0.7-5.5,1.1c-1-0.4-3.1-1.1-5.5-1.1c-3,0-5.6,0.5-5.7,0.5
					l-0.3,0.1V38l0.5-0.1c0,0,2.1-0.5,5.2-0.5c2.3,0,4.8,0.7,5.7,1l0.1,0.1l0.1-0.1c1-0.3,3.4-1,5.7-1c3.1,0,5.2,0.5,5.2,0.5
					l0.5,0.1V21.8L43.1,21.7"/>
				<path class="st3" d="M31.5,23.1c-1-0.4-3-1-5.1-1c-2.4,0-4.4,0.3-5.2,0.4v12.3c0.8-0.1,2.6-0.4,4.9-0.4c2.1,0,4.2,0.5,5.4,0.9
					V23.1"/>
				<path class="st3" d="M37.5,22.1c-2.2,0-4.2,0.6-5.2,1v12.1c1.2-0.4,3.4-0.9,5.5-0.9c2.3,0,4.1,0.2,4.9,0.4V22.5
					C41.9,22.4,39.8,22.1,37.5,22.1"/>
				<path class="st2" d="M23.5,24.2c-0.3,0.1-0.5,0.4-0.4,0.6c0.1,0.3,0.4,0.4,0.7,0.3c0,0,1.6-0.3,2.9-0.3c1.2,0,2.6,0.5,2.6,0.6
					c0.3,0.1,0.6,0,0.7-0.3c0.1-0.3,0-0.5-0.3-0.6c-0.1,0-1.6-0.6-3-0.6C25.2,23.8,23.5,24.2,23.5,24.2"/>
				<path class="st2" d="M23.5,26.6c-0.3,0.1-0.5,0.4-0.4,0.6c0.1,0.3,0.4,0.4,0.7,0.3c0,0,1.6-0.3,2.9-0.3c1.2,0,2.6,0.5,2.6,0.6
					c0.3,0.1,0.6,0,0.7-0.3c0.1-0.3,0-0.5-0.3-0.6c-0.1,0-1.6-0.6-3-0.6C25.2,26.3,23.5,26.6,23.5,26.6"/>
				<path class="st2" d="M23.5,29c-0.3,0.1-0.5,0.4-0.4,0.6c0.1,0.3,0.4,0.4,0.7,0.3c0,0,1.6-0.3,2.9-0.3c1.2,0,2.6,0.5,2.6,0.5
					c0.3,0.1,0.6,0,0.7-0.3c0.1-0.3,0-0.5-0.3-0.6c-0.1,0-1.6-0.6-3-0.6C25.2,28.7,23.5,29,23.5,29"/>
				<path class="st2" d="M23.5,31.5c-0.3,0.1-0.5,0.4-0.4,0.6c0.1,0.3,0.4,0.4,0.7,0.3c0,0,1.6-0.3,2.9-0.3c1.2,0,2.6,0.6,2.6,0.6
					c0.3,0.1,0.6,0,0.7-0.3c0.1-0.3,0-0.5-0.3-0.6c-0.1,0-1.6-0.6-3-0.6C25.2,31.2,23.5,31.5,23.5,31.5"/>
				<path class="st2" d="M40.4,24.2c0.3,0.1,0.5,0.4,0.4,0.6c-0.1,0.3-0.4,0.4-0.7,0.3c0,0-1.6-0.3-2.9-0.3c-1.2,0-2.6,0.5-2.6,0.6
					c-0.3,0.1-0.6,0-0.7-0.3c-0.1-0.3,0-0.5,0.3-0.6c0.1,0,1.6-0.6,3-0.6C38.7,23.8,40.3,24.2,40.4,24.2"/>
				<path class="st2" d="M40.4,26.6c0.3,0.1,0.5,0.4,0.4,0.6c-0.1,0.3-0.4,0.4-0.7,0.3c0,0-1.6-0.3-2.9-0.3c-1.2,0-2.6,0.5-2.6,0.6
					c-0.3,0.1-0.6,0-0.7-0.3c-0.1-0.3,0-0.5,0.3-0.6c0.1,0,1.6-0.6,3-0.6C38.7,26.3,40.3,26.6,40.4,26.6"/>
				<path class="st2" d="M40.4,29c0.3,0.1,0.5,0.4,0.4,0.6c-0.1,0.3-0.4,0.4-0.7,0.3c0,0-1.6-0.3-2.9-0.3c-1.2,0-2.6,0.5-2.6,0.5
					c-0.3,0.1-0.6,0-0.7-0.3c-0.1-0.3,0-0.5,0.3-0.6c0.1,0,1.6-0.6,3-0.6C38.7,28.7,40.3,29,40.4,29"/>
				<path class="st2" d="M40.4,31.5c0.3,0.1,0.5,0.4,0.4,0.6c-0.1,0.3-0.4,0.4-0.7,0.3c0,0-1.6-0.3-2.9-0.3c-1.2,0-2.6,0.6-2.6,0.6
					c-0.3,0.1-0.6,0-0.7-0.3c-0.1-0.3,0-0.5,0.3-0.6c0.1,0,1.6-0.6,3-0.6C38.7,31.2,40.3,31.5,40.4,31.5"/>
				<path class="st2" d="M72.1,52.9c-0.3-1.1-0.9-1.6-1.6-2c-2.1-1.1-4.8-0.3-7.2,0.5C61.6,52,61,52.2,59,52.5
					c-1.5,0.2-6.7,0.9-8.3-0.4c-0.2-0.2-0.5-0.6-0.5-0.9c0-0.6,0.2-1.2,0.4-1.4c0.4-0.5,1.4-0.7,2.9-0.7l4,0.1
					c0.3,0.3,0.9,0.8,2.5,1.2c2.6,0.6,5.4-0.3,5.4-0.3s-0.5-0.1-0.9-0.4c-0.3-0.3-0.3-0.6-0.3-0.6s0.6,0.3,1.4,0.2
					c1,0,1.5-0.5,2.5-0.8c1-0.3,2,0,2,0s-1-1-1.9-1.2c-1-0.2-2.2,0.1-2.2,0.1s0.3-0.1,0.7-0.5c0.3-0.3,0.3-0.7,0.3-0.7
					s-1.1,0.4-2.3,0.4c-1.2-0.1-1.1-0.5-3.3-0.5c-1.7,0-3.1,1-3.7,1.5c-1.8-0.1-3.3-0.2-4.1-0.2c-2.3,0-3.7,0.4-4.5,1.3
					c-0.7,0.7-1,1.7-0.9,2.9c0.1,0.9,0.5,1.7,1.2,2.3c2.2,1.8,8,1.2,10.1,0.9c2.3-0.4,3-0.6,4.3-1l0.1,0c1-0.4,4.2-1.4,5.5-0.7
					c0.3,0.1,0.4,0.4,0.6,0.8c0,0.2,0.1,0.3,0.1,0.5c0,0.3-0.1,0.5-0.3,0.7c-1.2,1.5-5.7,1.7-7.7,1.8c-0.2,0-1.5-0.3-3.3-0.3
					c-1.2,0-2.2,0.1-3.2,0.1c-1.9,0.1-3.8,0.3-7.1-0.1c-1.5-0.2-2.9-0.5-4-0.8c0-0.4-0.2-0.8-0.6-1.2c0.8,0.2,1.8-0.6,2.1-1
					c0,0-1.4-0.4-1.5-1.3c0,0,1,0.1,1.4-1.3c-1-0.5-0.7-0.7-1.1-1.4c-0.4-0.6-1-0.9-1.8-0.9c0.3,0,0.3,0,0.7-0.2
					c0.4-0.2,0.7-0.8,1.1-0.8c-0.8-1.3-3.1-1.5-4.1-1.2c0.3-0.3,0.6-0.6,0.6-1.1c-1.3,0.4-2.5-0.3-3.8-0.1c-1.1,0.2-1.7,0.6-2,1.6
					h-0.1c-0.3-1-0.9-1.4-2-1.6c-1.3-0.2-2.5,0.4-3.8,0.1c0,0.4,0.4,0.8,0.6,1.1c-0.9-0.3-3.2-0.1-4.1,1.2c0.4,0,0.7,0.6,1.1,0.8
					c0.4,0.2,0.4,0.1,0.7,0.2c-0.7,0-1.3,0.3-1.7,0.9c-0.5,0.7-0.2,0.9-1.1,1.4c0.4,1.3,1.4,1.2,1.4,1.3c-0.1,0.9-1.5,1.3-1.5,1.3
					c0.3,0.4,1.3,1.3,2.1,1c-0.6,0.7-0.7,1.3-0.6,2c-1-0.8-2-1.6-2.5-2.3c-0.1-0.2-0.5-1.5-0.8-2.3L23.1,51L23,50.6
					c-0.3-1.1-0.6-2.1-1.1-2.2c-0.3-0.1-0.5-0.1-0.8-0.1c-0.2-0.3-0.4-0.6-0.7-0.7c-0.6-0.2-0.9,0-0.9,0s0.5,0.3,0.6,0.7
					c0.1,0.1,0.1,0.2,0.1,0.3c-0.1,0.1-0.2,0.1-0.3,0.2l0,0c-0.1,0.1-0.1,0.1-0.2,0.2c0,0-0.1,0-0.1,0c-0.6-0.1-0.9,0.1-0.9,0.1
					s0.3,0.2,0.6,0.4c-0.2,0.3-0.4,0.7-0.4,1.2c0,0,0,0.1,0,0.1c-0.6,0-0.8,0.3-0.8,0.3s0.6,0.2,0.9,0.4c0,0,0.1,0.1,0.1,0.1
					c0,0,0,0.1,0,0.1c-0.1,0.2-0.2,0.4-0.2,0.6c0,0.5,0.3,1.1,0.7,1.5c0,0,1.1,0.9,1.2,1c0.4,0.9,0.9,1.8,1.2,2.1
					c0.1,0.1,0.7,1.2,1.4,2.4c0.1,0.2,0.2,0.3,0.3,0.5c0.2,0.7,0.3,1.6,0.4,2.4c0.1,1.3,0,2.7,0,2.7s0.8,0,1.2-0.6
					c0,0,0.3,0.9,0.3,1.9c0,0.8-0.2,1.8-0.2,1.8s0.8-0.4,1.4-1c0.3-0.3,0.6-0.7,0.8-1c0.7,0.4,2.6-0.2,3.6-0.6
					c0.2,0.4,0.5,0.8,0.8,1.3c0.1-0.6,0.8-0.9,1-1.3h0.3c0,0.6-0.2,1.2,0.4,2.4c0.2,0.3,1,1.6,1.6,2.2c-0.2,1.1-0.7,3-1.1,4.6
					c-0.5,1.8-0.9,2.7-1.2,3.2c-0.7,0-1.9,0.1-2.3,0.1c-1,0-1.7,0.2-2.1,0.6c0,0-0.1,0.1-0.1,0.1c-0.3,0-0.7,0.2-0.9,0.4
					C27,79.3,27,79.6,27,79.6s0.5-0.3,0.9-0.3H28v0.1c0,0.1,0.1,0.2,0.1,0.4C28,79.9,28,79.9,27.9,80c-0.4,0.5-0.4,0.8-0.4,0.8
					s0.5-0.3,0.9-0.4c0.1,0.2,0.2,0.4,0.4,0.6c0,0,0,0-0.1,0.1c-0.3,0.5-0.3,0.8-0.3,0.8s0.4-0.3,0.8-0.4c0.1,0.1,0.3,0.3,0.4,0.4
					c0.6,0.5,2,0.2,3.8-0.3l1.1-0.3c0.8-0.1,1.3-0.5,1.7-1.1c0.1-0.1,0.2-0.4,0.3-0.7l0.1-0.3c0.2-0.7,0.4-1.2,0.9-1.9
					c0,0,0.5-0.8,1.2-1.9c0.6-0.5,1.3-1.1,1.8-1.4c0.8-0.5,2.3-1.3,2.3-1.3s-0.4-0.7-1-0.8c0,0,0.8-0.8,1.5-1.1
					c0.8-0.3,1.7-0.5,1.7-0.5s-0.3-0.7-0.9-1.1c0.2-0.1,0.4-0.2,0.7-0.4c1.3-0.9,2.3-0.8,3.2-0.6c0-0.6-0.1-1-0.6-1.3
					c0.4-0.2,0.9-0.3,1.4-0.4c0.3,0.5,0.6,1.1,0.8,1.3c0.7,1,1.7,2.3,2.5,3.1c0,0,0,0.1,0,0.1c0,0.3-0.4,1.3-0.7,1.8l-0.2,0.5
					c0,0-0.8,2-1.1,2.5c-0.5,0-1.9,0.1-2.4,0.1c-0.9-0.1-1.6,0.1-2.1,0.6c-0.1,0.1-0.1,0.1-0.1,0.2c-0.3,0-0.8,0.2-1,0.5
					c-0.4,0.5-0.4,0.8-0.4,0.8s0.5-0.3,0.9-0.4c0.1,0,0.1,0,0.2,0c0,0.1,0.1,0.3,0.2,0.4c-0.1,0.1-0.2,0.1-0.2,0.2
					c-0.3,0.5-0.3,0.8-0.3,0.8s0.5-0.4,0.9-0.4c0,0,0,0,0,0c0.1,0.1,0.2,0.3,0.3,0.4c0,0-0.1,0.1-0.1,0.1c-0.3,0.5-0.3,0.8-0.3,0.8
					s0.5-0.4,0.8-0.4c0.1,0.2,0.2,0.3,0.3,0.4c0.5,0.5,1.7,0.2,3.3-0.3l1.1-0.3c0.8-0.1,1.3-0.4,1.6-1l0.3-0.6
					c0.1-0.3,0.3-0.7,0.4-0.9c0.2-0.3,0.4-0.6,0.6-1c0.3-0.2,0.5-0.4,0.7-0.6c0.5-0.4,1.8-1.1,1.8-1.1s-0.3-0.5-0.8-0.6
					c0,0,0.5-0.6,1.1-0.9c0.5-0.3,1.3-0.4,1.3-0.4s-0.6-0.5-1.1-0.7c-0.2-0.1-0.4-0.1-0.7-0.2c0-0.3-0.2-0.6-0.4-1
					c-0.5-0.7,0.2-2.2,0.7-3.1c0.2,0.3,0.7,0.9,1.4,1.7c0,0,2.3,2.5,2.8,3.1c-0.1,0.4-0.4,1.7-0.9,3.1c-0.4,1-0.9,2.1-1.2,2.6
					c-0.6,0-1.8,0.1-2.3,0.1c-0.9,0-1.6,0.2-2.1,0.6c-0.1,0.1-0.1,0.1-0.2,0.2c-0.3,0.1-0.7,0.2-0.8,0.4c-0.4,0.5-0.4,0.8-0.4,0.8
					s0.4-0.4,0.9-0.4h0.1c0,0.1,0.1,0.3,0.2,0.4c-0.1,0.1-0.2,0.1-0.2,0.2C54,80.7,54,81,54,81s0.5-0.4,0.9-0.4h0
					c0.1,0.2,0.3,0.4,0.4,0.5c0,0,0,0,0,0C55,81.6,55,82,55,82s0.4-0.3,0.7-0.4c0.1,0.1,0.2,0.2,0.3,0.3c0.5,0.5,1.7,0.2,3.3-0.3
					l1.1-0.3c0.8-0.1,1.2-0.4,1.6-1c0.2-0.3,0.9-1.9,1.1-2.4c0.3-0.9,0.7-1.7,1.1-2.5c0.2-0.2,0.4-0.3,0.5-0.4c0.6-0.4,2-1.2,2-1.2
					s-0.3-0.6-0.8-0.6c0,0,0.5-0.5,1.1-0.9c0.5-0.3,1.4-0.5,1.4-0.5s-0.6-0.5-1.1-0.7c-0.3-0.1-0.7-0.2-0.9-0.2
					c-0.1-0.4-0.3-0.5-0.6-0.7c-0.3-0.1-0.6-0.3-1.2-0.9c-0.7-0.8-0.8-2.4-0.8-3.9v-1l0-1.5c-0.1-1.8-0.3-3-0.6-3.8
					c2.3-0.2,6.5-0.7,8.2-2.8c0.5-0.6,0.8-1.4,0.8-2.2C72.3,53.7,72.2,53.3,72.1,52.9"/>
				<path class="st5" d="M36.9,52.6c0,0.1,0.3,2.9,0.3,2.9s-1.5,0.8-1.6,0.9c0,0.1,0,1,0,1c0.1,0.1,0.3,0.3,0.6,0.4
					c0.5,0.2,1,0.1,1,0.1l0.1,0l-0.1,0.4l0,0c0,0-0.6,0.1-1.1,0c-0.4-0.1-0.6-0.3-0.7-0.3h-0.3c-0.1,0-0.3,0.2-0.7,0.3
					c-0.5,0.1-1.1,0-1.1,0l0,0l-0.1-0.4l0.1,0c0,0,0.5,0.1,1-0.1c0.3-0.1,0.6-0.3,0.6-0.4c0-0.1,0-1,0-1c-0.1,0-1.6-1.1-1.6-1.1
					s2.7,0,2.8,0v-3.8l2.2,0l0.3,0C38.8,51.4,36.9,52.5,36.9,52.6 M32,51.4l2.1,0h0.1l-0.1,1.2L32,51.4z M40,51.2
					c0.4-0.3,1.2-1,0.8-1.8c-0.5-0.9-1.6-0.5-1.9-0.4c0,0-2.5-1.1-2.6-1.1c0,0-1,1.1-1,1.1s-1-1.2-1-1.1c0,0-2.5,1.1-2.6,1.1
					c-0.3-0.1-1.4-0.5-1.9,0.4c-0.5,0.9,0.4,1.6,0.8,1.8l0,0c0,0-0.8,1.4-0.8,1.4c0,0,2.3,2.8,2.3,2.8c0,0,0,1.8,0,1.8
					c0,0,0.9,0.6,1,0.6c0.1,0.7,0.2,1,0.4,1.4c0.1,0.1,0.9,0.4,1.8,0.4h0.1c0.9,0,1.7-0.3,1.8-0.4c0.2-0.4,0.2-0.7,0.4-1.4
					c0.1,0,1-0.6,1-0.6v-1.8c0,0,2.3-2.8,2.3-2.8C40.8,52.7,40,51.2,40,51.2L40,51.2z"/>
				<path class="st5" d="M55.7,72c0.3-0.3,0.5-0.4,0.5-0.6c0-0.2-0.1-0.4-0.3-0.7c-0.2-0.3-0.2-0.6-0.2-0.9c0-1.1,0.7-2.5,1-3
					c-0.1-0.1-0.2-0.3-0.3-0.5c-0.1-0.1-0.2-0.1-0.2-0.1c-0.2-0.1-0.7-0.6-1-1c0-0.1-0.1-0.1-0.1-0.2c-0.6,0-2.1-0.1-3.6,0.4
					c0.5,0.3,0.6,0.6,0.6,1.1c-1-0.2-1.8-0.2-2.6-0.1c0.3,0.5,0.5,0.9,0.7,1.1c0.7,0.9,1.7,2.2,2.5,3c0.1,0.1,0.2,0.3,0.2,0.5
					c0,0.5-0.3,1.2-0.7,2.1l-0.2,0.5l-1.2,2.8l-0.2,0c-0.1,0-2,0.1-2.6,0.1c-0.7,0-1.2,0.1-1.5,0.3c0,0.1,0.1,0.3,0,0.5
					c-0.1,0.2-0.2,0.3-0.3,0.4c0,0,0,0.1,0,0.1c0.4-0.1,0.7-0.2,0.7-0.2s0.2,0.3,0.1,0.6c-0.1,0.3-0.2,0.4-0.3,0.5
					c0,0,0,0.1,0.1,0.1c0.4-0.2,0.9-0.2,0.9-0.2s0.2,0.3,0.1,0.7c0,0.2-0.1,0.3-0.2,0.4c0.5,0.2,1.8-0.2,2.7-0.5l1.2-0.3
					c0.6-0.1,1-0.3,1.2-0.8l0.3-0.6c0.1-0.4,0.3-0.7,0.5-1c0.4-0.6,0.8-1.4,1.2-2.2C54.9,73.3,55.4,72.3,55.7,72"/>
				<path class="st5" d="M32.9,64.7L32.9,64.7L32.9,64.7C33,64.7,32.9,64.7,32.9,64.7"/>
				<path class="st5" d="M30.5,61.4c-0.4,0.6-1,0.8-1.9,0.9c0.2-0.9,0-1.5-0.3-2.1c-0.3-0.6-1-1.8-1.3-2.5c-0.1-0.2-0.1-0.4-0.2-0.5
					c-1.2-0.9-2.5-2-3.2-2.8c-0.2-0.2-0.4-1-0.9-2.5l-0.2-0.7l-0.1-0.4c-0.3-1.1-0.6-1.7-0.7-1.8c-0.1,0-0.2,0-0.3-0.1v0
					c0,0-0.1,0.3-0.6,0.3c-0.1,0-0.2-0.1-0.3-0.1c-0.1,0-0.1,0.1-0.1,0.1l0,0c0,0-0.1,0.1-0.1,0.1c0.3,0.3,0.6,0.7,0.6,0.7
					s-0.1,0.4-0.6,0.4c-0.3,0.1-0.6-0.2-0.6-0.2s0-0.1,0-0.3c-0.1,0.3-0.2,0.6-0.1,0.9c0.4,0.2,0.8,0.6,0.8,0.6s0,0.3-0.5,0.6
					c-0.2,0.1-0.4,0-0.5,0c-0.1,0.3,0.1,0.8,0.5,1.2l1.3,1l0,0.1c0.4,0.9,0.9,1.7,1.1,2c0.1,0.1,0.5,0.8,1.5,2.5
					c1.4,2.4,3.5,5.9,4,6.5c0.2,0.2,1.6-0.1,3-0.7C30.2,63.4,30.7,62.6,30.5,61.4"/>
				<path class="st5" d="M71.6,53.1c-0.3-0.9-0.7-1.3-1.3-1.7c-1.9-1-4.4-0.3-6.7,0.5c-1.9,0.7-2.5,0.8-4.5,1.1
					c-2,0.3-7,0.9-8.8-0.6c-0.4-0.3-0.7-0.9-0.7-1.3c-0.1-0.7,0.2-1.5,0.5-1.9c0.5-0.6,1.6-0.9,3.4-0.9c0,0,2.7,0,4.1,0.1l0.3-0.3
					L57.7,48c-1.8-0.1-3.3-0.2-4.1-0.2c-2.2,0-3.4,0.3-4.1,1.1c-0.6,0.6-0.8,1.4-0.7,2.4c0.1,0.8,0.4,1.4,1,1.9
					c1.9,1.5,7.3,1.2,9.6,0.8c2.3-0.4,2.9-0.6,4.2-1l0.1,0c1.2-0.4,4.4-1.5,6-0.7c0.4,0.2,0.7,0.6,0.9,1.2c0.2,0.7,0.1,1.2-0.3,1.7
					c-1.4,1.7-5.8,1.9-8.1,2h0l0,0c0,0-1.4-0.3-3.2-0.4c-1.1,0-2.1,0.1-3.1,0.2c-1.9,0.1-3.9,0.3-7.2-0.1c-1.5-0.2-2.8-0.4-3.9-0.7
					c-0.1,0.4-0.2,0.9-0.5,1.6c-0.2,0.7-1,1.9-1.3,2.5c-0.3,0.7-0.5,1.3-0.3,2.1c-0.9-0.1-1.5-0.4-1.9-0.9c-0.3,1.6,0.7,2.6-1.3,5.2
					c-0.2-0.8-1.3-1-1.2-1.9c-0.4,0.9,0.2,1.5-0.6,3c-0.2,0.4-1.3,2-1.9,2.5c-0.2,1.1-0.7,3-1.1,4.5c-0.6,2.1-1.1,3-1.3,3.4
					l-0.1,0.1l-0.1,0c-0.6,0-2.1,0.1-2.5,0.1c-0.6,0-1.1,0.1-1.5,0.3c0,0.2,0,0.4,0,0.6c-0.1,0.2-0.3,0.3-0.4,0.3c0,0,0,0.1,0.1,0.1
					c0.4-0.1,0.8-0.1,0.8-0.1s0.2,0.4,0,0.8c-0.1,0.2-0.2,0.3-0.2,0.3c0,0.1,0.1,0.1,0.1,0.2c0.4-0.2,1-0.3,1-0.3s0.2,0.3,0.1,0.8
					c0,0.2-0.1,0.2-0.2,0.3c0.6,0.2,2.2-0.3,3.1-0.5l1.2-0.3c0.6-0.1,1-0.3,1.3-0.8c0.1-0.1,0.1-0.4,0.2-0.6l0.1-0.3
					c0.3-0.7,0.5-1.2,1-2.1c1.2-1.9,4.7-7.7,4.9-8.1v-0.1c0-0.3-0.1-1-0.3-1.4l-0.1-0.3c0,0,11.4-3.3,12.1-3.5
					c-0.2-0.4-0.7-1.2-0.7-1.2l0.4-0.4c0,0,0.9,0.7,1.4,1.1c0.4,0.4,0.8,1.1,1.3,1.8l0.2,0.4c0.5,0.8,1,1.3,1,1.4l0,0l0,0
					c0,0,0.4,0.7,1.6,2l3,3.3l0,0.1c0,0-0.4,1.6-1,3.3c-0.4,1.1-1,2.3-1.3,2.8l-0.1,0.1l-0.2,0c-0.6,0-2,0.1-2.5,0.1
					c-0.6,0-1.1,0.1-1.5,0.3c0,0.2,0.1,0.4,0,0.6c-0.1,0.2-0.2,0.3-0.3,0.4c0,0,0,0,0.1,0.1c0.4-0.1,0.7-0.2,0.7-0.2
					s0.2,0.3,0.1,0.7c0,0.2-0.2,0.4-0.3,0.4c0,0.1,0.1,0.1,0.1,0.2c0.4-0.2,1-0.3,1-0.3s0.2,0.3,0.1,0.7c0,0.2-0.2,0.3-0.3,0.4
					c0.6,0.1,1.8-0.3,2.5-0.5l1.2-0.3c0.6-0.1,1-0.3,1.2-0.8c0.1-0.2,0.8-1.7,1-2.3c0.7-1.8,1.8-4,2.5-5.2l0.4-0.6
					c0.2-0.3,0.4-0.6,0.4-0.8c0-0.3,0-0.3-0.3-0.4c-0.3-0.1-0.7-0.4-1.3-1.1c-1-1.1-1-3.4-0.9-5.3v-1.5c0-1.9-0.4-3.2-0.6-4
					l-0.1-0.3l0.4,0c2.1-0.2,6.5-0.6,8.2-2.6C71.7,55.1,71.9,54.1,71.6,53.1"/>
				<path class="st3" d="M60.2,30.4c0.2,0.3,0.5,0.7,0.6,1.1c-0.2,0-0.4,0-0.6,0c-0.2,0-0.4,0-0.6,0C59.8,31.1,60,30.7,60.2,30.4"/>
				<path class="st5" d="M57.7,30.3c-0.5-0.3-0.8-0.8-1.1-1.3h0c0.6,0,1.1,0.1,1.6,0.3C58,29.6,57.8,30,57.7,30.3 M54.1,29.9
					c0.6,1.3,1.7,2.4,3,3.1c0,0.1,0,0.1,0,0.2c0,1.4,0.5,2.8,1.2,3.9c-0.5,0.2-1.1,0.3-1.6,0.3c-2.3,0-4.2-1.9-4.2-4.2
					C52.4,31.8,53,30.6,54.1,29.9 M63.8,29L63.8,29c-0.3,0.5-0.6,0.9-1.1,1.3c-0.2-0.3-0.3-0.6-0.5-0.9C62.7,29.1,63.3,29,63.8,29
					 M56.6,26.4c-0.2,0-0.4,0-0.5,0c0.3-2.1,2-3.7,4.2-3.7c2.1,0,3.9,1.6,4.2,3.7l-0.5,0c-1.3,0-2.5,0.4-3.6,1
					C59.2,26.7,57.9,26.4,56.6,26.4 M63.4,33c1.3-0.7,2.3-1.8,3-3.1c1,0.8,1.7,2,1.7,3.3c0,2.3-1.9,4.2-4.2,4.2
					c-0.6,0-1.1-0.1-1.6-0.3c0.8-1.1,1.2-2.5,1.2-3.9L63.4,33z M59.7,33.7l0.5,0c0.2,0,0.3,0,0.5,0c-0.1,0.6-0.2,1.1-0.5,1.6
					C60,34.8,59.8,34.3,59.7,33.7 M67,27.2c0-0.1,0-0.2,0-0.2c0-3.8-3.1-6.8-6.8-6.8c-3.8,0-6.8,3.1-6.8,6.8l0,0.2
					c-2.2,1.1-3.6,3.4-3.6,6c0,3.8,3.1,6.8,6.8,6.8c1.3,0,2.5-0.4,3.6-1.1c1.1,0.7,2.3,1.1,3.6,1.1c3.8,0,6.8-3.1,6.8-6.8
					C70.7,30.7,69.2,28.3,67,27.2"/>
				<path class="st3" d="M61.5,33.7c0.4-0.1,0.8-0.2,1.1-0.3c0,1.2-0.4,2.4-1.1,3.4c-0.3-0.2-0.6-0.5-0.8-0.7
					C61.2,35.3,61.4,34.5,61.5,33.7"/>
				<path class="st3" d="M60.2,20.9c3.3,0,6,2.7,6,6.1c0,3.3-2.7,6.1-6,6.1l-0.6,0c0-0.4,0.1-0.7,0.2-1.1l0.4,0c2.7,0,5-2.2,5-5
					c0-2.7-2.2-5-5-5c-2.6,0-4.7,2-4.9,4.5c-0.4,0.1-0.8,0.2-1.1,0.3C54.2,23.6,56.9,20.9,60.2,20.9"/>
				<path class="st3" d="M63.8,27.2l0.5,0c0,0.4-0.1,0.7-0.2,1.1l-0.3,0c-0.7,0-1.5,0.2-2.1,0.5c-0.3-0.3-0.5-0.6-0.8-0.8
					C61.8,27.4,62.8,27.2,63.8,27.2"/>
				<path class="st3" d="M56.6,39.3c-3.3,0-6.1-2.7-6.1-6.1c0-3.3,2.7-6.1,6.1-6.1c2.4,0,4.5,1.4,5.5,3.5c-0.3,0.2-0.7,0.3-1,0.4
					c-0.8-1.7-2.5-2.8-4.5-2.8c-2.7,0-5,2.2-5,5c0,2.7,2.2,5,5,5c0.7,0,1.5-0.2,2.1-0.5c0.3,0.3,0.5,0.6,0.8,0.8
					C58.6,39,57.6,39.3,56.6,39.3"/>
				<path class="st3" d="M55.7,29.1c0.4,0.8,1,1.4,1.7,1.9c-0.1,0.4-0.2,0.8-0.3,1.1c-1.1-0.6-1.9-1.6-2.4-2.7
					C55,29.3,55.4,29.2,55.7,29.1"/>
				<path class="st3" d="M63.8,39.3c-3.3,0-6.1-2.7-6.1-6.1c0-1.3,0.4-2.5,1.1-3.5c0.3,0.2,0.6,0.4,0.8,0.7
					c-0.6,0.8-0.9,1.8-0.9,2.8c0,2.7,2.2,5,5,5c2.7,0,5-2.2,5-5c0-1.6-0.8-3.1-2.1-4.1c0.1-0.4,0.2-0.7,0.3-1.1c1.8,1.1,3,3.1,3,5.2
					C69.9,36.6,67.2,39.3,63.8,39.3"/>
			</g>
			<rect x="209.3" y="17.2" class="st2" width="1.1" height="80.2"/>
		</g>
	</g>
	<g class="st1">
		<line class="st6" x1="-23" y1="97.3" x2="424.9" y2="97.3"/>
		<g>
			<line class="st6" x1="-22.8" y1="17.2" x2="424.9" y2="17.2"/>
			<line class="st6" x1="13.8" y1="-18.3" x2="13.8" y2="132.7"/>
			<line class="st6" x1="390.6" y1="-18.3" x2="390.6" y2="132.9"/>
			<line class="st6" x1="227.9" y1="-18.3" x2="227.9" y2="132.7"/>
		</g>
		<polygon class="st6" points="-23.1,132.8 -23.1,-18.3 -23,-18.3 425,-18.3 425,132.9 -23,132.9 		"/>
	</g>
</g>
<g>
	<g>
		<g>
			<g>
				<g>
					<polygon class="st2" points="85.3,63.3 86.9,63.3 90.6,70 90.6,70 90.6,63.3 91.8,63.3 91.8,71.7 90.3,71.7 86.5,64.8 
						86.5,64.8 86.5,71.7 85.3,71.7 					"/>
					<path class="st2" d="M94.2,66.9c0.5-0.4,1.1-0.6,1.8-0.6c1.1,0,1.5,0.5,1.5,1.6c-0.4,0-0.8,0-1.2,0c-1.2,0-2.8,0.5-2.8,2
						c0,1.3,0.9,1.9,2.2,1.9c1,0,1.6-0.6,1.9-0.9h0v0.8h1.1c0-0.2-0.1-0.5-0.1-1.2v-2.5c0-1.7-0.7-2.5-2.4-2.5c-0.8,0-1.4,0.2-2,0.6
						L94.2,66.9 M97.4,69.3c0,0.9-0.6,1.6-1.7,1.6c-0.5,0-1.1-0.4-1.1-1c0-1.1,1.5-1.2,2.1-1.2c0.2,0,0.5,0,0.7,0V69.3z"/>
					<path class="st2" d="M103.7,66.5h-1.6v3.3c0,0.7,0.4,1.1,0.9,1.1c0.4,0,0.6-0.1,0.8-0.2v1c-0.2,0.1-0.6,0.2-1,0.2
						c-1.2,0-1.9-0.6-1.9-1.8v-3.6h-1.4v-0.9h1.4v-1.4l1.1-0.4v1.8h1.6V66.5"/>
					<path class="st2" d="M105.2,64.2h1.3v-1.3h-1.3V64.2z M105.3,71.7h1.1v-6.1h-1.1V71.7z"/>
					<path class="st2" d="M108,68.6c0,1.7,1.3,3.2,3.1,3.2c1.8,0,3.1-1.4,3.1-3.2c0-1.9-1.3-3.2-3.1-3.2
						C109.3,65.4,108,66.8,108,68.6 M109.2,68.6c0-1.2,0.7-2.3,1.9-2.3c1.2,0,1.9,1.1,1.9,2.3c0,1.1-0.6,2.3-1.9,2.3
						C109.8,70.9,109.2,69.7,109.2,68.6"/>
					<path class="st2" d="M115.7,65.6h1.1v1h0c0.3-0.7,1.1-1.1,2-1.1c1.6,0,2.3,1,2.3,2.6v3.6H120v-3.2c0-1.4-0.3-2.1-1.3-2.2
						c-1.3,0-1.8,1-1.8,2.5v2.8h-1.1V65.6"/>
					<path class="st2" d="M123.4,66.9c0.4-0.4,1.1-0.6,1.8-0.6c1.1,0,1.5,0.5,1.5,1.6c-0.4,0-0.8,0-1.2,0c-1.2,0-2.8,0.5-2.8,2
						c0,1.3,0.9,1.9,2.2,1.9c1,0,1.6-0.6,1.9-0.9h0v0.8h1.1c0-0.2-0.1-0.5-0.1-1.2v-2.5c0-1.7-0.7-2.5-2.4-2.5c-0.8,0-1.4,0.2-2,0.6
						L123.4,66.9 M126.6,69.3c0,0.9-0.6,1.6-1.7,1.6c-0.5,0-1.1-0.4-1.1-1c0-1.1,1.5-1.2,2.1-1.2c0.2,0,0.5,0,0.7,0V69.3z"/>
					<rect x="129.8" y="62.7" class="st2" width="1.1" height="9"/>
					<path class="st2" d="M142.6,68.2c0,2.3-1.2,3.6-3.2,3.6c-2.1,0-3.2-1.3-3.2-3.6v-4.9h1.2V68c0,1.6,0.5,2.7,2,2.7
						c1.5,0,2-1.1,2-2.7v-4.7h1.2V68.2"/>
					<path class="st2" d="M144.6,65.6h1.1v1h0c0.3-0.7,1.2-1.1,2-1.1c1.6,0,2.3,1,2.3,2.6v3.6h-1.1v-3.2c0-1.4-0.3-2.1-1.3-2.2
						c-1.3,0-1.9,1-1.9,2.5v2.8h-1.1V65.6"/>
					<path class="st2" d="M152,62.9h1.3v1.3H152V62.9z M152,65.6h1.1v6.1H152V65.6z"/>
					<polygon class="st2" points="157.9,71.7 156.6,71.7 154.4,65.6 155.6,65.6 157.3,70.5 157.3,70.5 159,65.6 160.1,65.6 					"/>
					<path class="st2" d="M165.9,70.3c-0.3,0.2-1.1,0.6-1.9,0.6c-1.1,0-2-0.8-2-2h4.4c0-2-0.7-3.4-2.7-3.4c-1.7,0-2.9,1.3-2.9,3.1
						c0,2,1,3.3,3.2,3.3c1,0,1.5-0.2,1.9-0.4V70.3 M162,68c0.1-0.8,0.5-1.7,1.6-1.7c1,0,1.5,0.8,1.5,1.7H162z"/>
					<path class="st2" d="M167.8,65.6h1v0.9h0c0.3-0.6,0.9-1.1,1.6-1.1c0.3,0,0.5,0,0.7,0.1v1c-0.2-0.1-0.4-0.1-0.6-0.1
						c-1,0-1.7,0.9-1.7,2.5v2.8h-1.1V65.6"/>
					<path class="st2" d="M172,70.5c0.4,0.3,1.1,0.4,1.4,0.4c0.5,0,1.1-0.2,1.1-0.9c0-1.1-2.6-1-2.6-2.7c0-1.3,0.9-1.9,2.1-1.9
						c0.5,0,1,0.1,1.4,0.2l-0.1,1c-0.2-0.2-0.9-0.3-1.2-0.3c-0.6,0-1.1,0.2-1.1,0.7c0,1.2,2.6,0.9,2.6,2.8c0,1.3-1,1.9-2.1,1.9
						c-0.6,0-1.1-0.1-1.7-0.3L172,70.5"/>
					<path class="st2" d="M177.2,62.9h1.3v1.3h-1.3V62.9z M177.3,65.6h1.1v6.1h-1.1V65.6z"/>
					<path class="st2" d="M183.7,66.5h-1.6v3.3c0,0.7,0.4,1.1,0.9,1.1c0.3,0,0.6-0.1,0.8-0.2v1c-0.3,0.1-0.6,0.2-1,0.2
						c-1.2,0-1.9-0.6-1.9-1.8v-3.6h-1.4v-0.9h1.4v-1.4l1.1-0.4v1.8h1.6V66.5"/>
					<path class="st2" d="M184.6,73.3c0.1,0,0.3,0.1,0.5,0.1c1,0,1.3-1.4,1.3-1.5c0-0.1-0.2-0.4-0.2-0.6l-2.1-5.7h1.2l1.6,5h0l1.7-5
						h1.1l-2.2,6.2c-0.4,1.2-0.9,2.5-2.3,2.5c-0.4,0-0.6,0-0.8-0.1L184.6,73.3"/>
					<path class="st2" d="M84.8,82.7c0,1.7,1.3,3.2,3.1,3.2c1.8,0,3.1-1.4,3.1-3.2c0-1.9-1.2-3.2-3.1-3.2
						C86,79.5,84.8,80.9,84.8,82.7 M86,82.7c0-1.2,0.7-2.3,1.9-2.3c1.2,0,1.9,1.1,1.9,2.3c0,1.1-0.6,2.3-1.9,2.3
						C86.6,85,86,83.8,86,82.7"/>
					<path class="st2" d="M93.2,80.6h-1.4v-0.9h1.4v-0.6c0-1.5,0.4-2.4,2-2.4c0.3,0,0.5,0,0.8,0.1l0,0.9c-0.1,0-0.3-0.1-0.5-0.1
						c-1,0-1.1,0.6-1.1,1.5v0.7H96v0.9h-1.6v5.2h-1.1V80.6"/>
					<path class="st2" d="M104,78.7c-0.6-0.2-0.9-0.3-1.6-0.3c-0.7,0-1.4,0.2-1.4,1.1c0,1.6,3.6,1.2,3.6,4c0,1.8-1.4,2.5-3,2.5
						c-0.6,0-1.2-0.2-1.7-0.3l0.1-1.1c0.4,0.2,1.1,0.4,1.7,0.4c0.7,0,1.6-0.4,1.6-1.4c0-1.9-3.6-1.3-3.6-3.9c0-1.5,1.2-2.3,2.7-2.3
						c0.6,0,1.2,0.1,1.8,0.3L104,78.7"/>
					<path class="st2" d="M106.2,77.1h1.3v1.3h-1.3V77.1z M106.2,79.7h1.1v6.1h-1.1V79.7z"/>
					<path class="st2" d="M109.4,79.7h1.1v1h0c0.3-0.7,1.1-1.1,2-1.1c1.6,0,2.3,1,2.3,2.6v3.6h-1.1v-3.1c0-1.4-0.3-2.1-1.3-2.2
						c-1.3,0-1.8,1-1.8,2.5v2.8h-1.1V79.7"/>
					<path class="st2" d="M122.1,79.7h-1v0.9h0c-0.3-0.7-0.9-1.1-2-1.1c-1.8,0-2.7,1.7-2.7,3.2c0,1.6,0.9,3,2.6,3c0.8,0,1.6-0.3,2-1
						h0v0.6c0,1.3-0.7,2.1-1.9,2.1c-0.8,0-1.3-0.2-2.2-0.5l-0.1,1c1,0.3,1.5,0.4,2.2,0.4c2.2,0,3.1-1.1,3.1-2.9V79.7 M119.2,84.9
						c-1,0-1.7-1-1.7-2.2c0-1,0.6-2.3,1.7-2.3c1.2,0,1.8,1.1,1.8,2.4C121,83.9,120.3,84.9,119.2,84.9"/>
					<path class="st2" d="M124.4,81.1c0.5-0.4,1.1-0.6,1.8-0.6c1.1,0,1.5,0.5,1.5,1.6c-0.4,0-0.8,0-1.2,0c-1.2,0-2.8,0.5-2.8,2
						c0,1.3,0.9,1.9,2.2,1.9c1,0,1.6-0.6,1.9-0.9h0v0.8h1c0-0.2,0-0.5,0-1.2V82c0-1.7-0.7-2.5-2.5-2.5c-0.8,0-1.4,0.2-2,0.6
						L124.4,81.1 M127.6,83.4c0,0.9-0.6,1.6-1.7,1.6c-0.5,0-1.1-0.3-1.1-1c0-1.1,1.5-1.2,2.1-1.2c0.2,0,0.5,0,0.7,0V83.4z"/>
					<path class="st2" d="M130.7,88.3h1.1v-3.3h0c0.4,0.6,1,1,2,1c1.8,0,2.6-1.6,2.6-3.3c0-1.6-0.9-3.1-2.6-3.1
						c-1.1,0-1.8,0.6-2.1,1h0v-0.9h-1.1V88.3 M135.3,82.7c0,1-0.5,2.3-1.7,2.3c-1.3,0-1.8-1.3-1.8-2.3c0-1.1,0.6-2.3,1.8-2.3
						C134.8,80.4,135.3,81.6,135.3,82.7"/>
					<path class="st2" d="M137.6,82.7c0,1.7,1.3,3.2,3.1,3.2c1.8,0,3.1-1.4,3.1-3.2c0-1.9-1.2-3.2-3.1-3.2
						C138.8,79.5,137.6,80.9,137.6,82.7 M138.7,82.7c0-1.2,0.7-2.3,1.9-2.3c1.2,0,1.9,1.1,1.9,2.3c0,1.1-0.6,2.3-1.9,2.3
						C139.3,85,138.7,83.8,138.7,82.7"/>
					<path class="st2" d="M145.3,79.7h1v1h0c0.3-0.6,0.9-1.1,1.6-1.1c0.3,0,0.5,0,0.7,0.1v1c-0.2-0.1-0.4-0.1-0.6-0.1
						c-1,0-1.7,1-1.7,2.5v2.8h-1.1V79.7"/>
					<path class="st2" d="M154.6,84.4c-0.3,0.2-1.1,0.6-1.9,0.6c-1.1,0-2-0.8-2-2h4.3c0-2-0.7-3.4-2.7-3.4c-1.7,0-2.8,1.3-2.8,3.1
						c0,2,1,3.3,3.2,3.3c1,0,1.5-0.2,1.9-0.4V84.4 M150.7,82.1c0.1-0.8,0.5-1.7,1.6-1.7c1,0,1.5,0.8,1.5,1.7H150.7z"/>
					<path class="st2" d="M162.5,46.7c2.3,2.1,6.8,4,12.3,4.1c4.8,0.1,8.7-1.4,8.9-5.4c0.5-8.7-21.7-5.2-20.8-19.8
						c0.4-7.3,7.7-9.7,15.5-9.6c4.2,0.1,8.5,1.1,10.8,2.3l0,5.2c-2.8-1.9-6.8-3.2-10-3.2c-5-0.1-8.9,0.8-9,4.5
						c-0.1,7.6,22.3,5.8,21.4,20.3c-0.5,8.2-8.4,10.7-16.7,10.5c-4.8-0.1-9.4-1-12.4-2.5L162.5,46.7"/>
					<path class="st2" d="M141.5,55.5c-10.3,0-16.3-4.6-16.3-14.2V17.2h7.7v24.2c0,5.9,2.8,9.5,8.5,9.5c5.7,0,8.5-3.6,8.5-9.5
						l0-24.2h7.7v24.2C157.7,50.9,151.8,55.5,141.5,55.5"/>
					<path class="st2" d="M112.7,17.2v27.2L94.9,19.1c-0.8-1.2-2.2-1.9-3.8-1.9h-5.9v37.2h5.2V27l17.7,25.2c0.8,1.2,2.2,2,3.8,2h5.8
						V17.2H112.7"/>
					<path class="st2" d="M76.4,55.8V17.3H13.8v38.5v0.3c0,1.8,0.4,11.4,8.1,23.6c8.4,13.3,22.4,17.4,23,17.6l0.2,0.1l0.2-0.1
						c0.6-0.2,14.6-4.3,23-17.6C76.7,66.4,76.5,56.2,76.4,55.8"/>
					<path class="st3" d="M67,78.5c-7.6,12-20.2,16.3-22,16.9c-1.7-0.6-14.3-4.9-21.9-16.9c-7.6-12-7.9-21.6-7.9-22.9v-0.2V41.9
						h59.6v13.6v0.2C74.8,57,74.6,66.6,67,78.5"/>
					<path class="st4" d="M57.5,47.5L57.5,47.5L57.5,47.5z"/>
					<path class="st5" d="M43.1,21.7c-0.1,0-2.7-0.5-5.7-0.5c-2.4,0-4.6,0.7-5.5,1.1c-1-0.4-3.1-1.1-5.5-1.1c-3,0-5.6,0.5-5.7,0.5
						l-0.3,0.1V38l0.5-0.1c0,0,2.1-0.5,5.2-0.5c2.3,0,4.8,0.7,5.7,1l0.1,0.1l0.1-0.1c1-0.3,3.4-1,5.7-1c3.1,0,5.2,0.5,5.2,0.5
						l0.5,0.1V21.8L43.1,21.7"/>
					<path class="st3" d="M31.5,23.1c-1-0.4-3-1-5.1-1c-2.4,0-4.4,0.3-5.2,0.4v12.3c0.8-0.1,2.6-0.4,4.9-0.4c2.1,0,4.2,0.5,5.4,0.9
						V23.1"/>
					<path class="st3" d="M37.5,22.1c-2.2,0-4.2,0.6-5.2,1v12.1c1.2-0.4,3.4-0.9,5.5-0.9c2.3,0,4.1,0.2,4.9,0.4V22.5
						C41.9,22.4,39.8,22.1,37.5,22.1"/>
					<path class="st2" d="M23.5,24.2c-0.3,0.1-0.5,0.4-0.4,0.6c0.1,0.3,0.4,0.4,0.7,0.3c0,0,1.6-0.3,2.9-0.3c1.2,0,2.6,0.5,2.6,0.6
						c0.3,0.1,0.6,0,0.7-0.3c0.1-0.3,0-0.5-0.3-0.6c-0.1,0-1.6-0.6-3-0.6C25.2,23.8,23.5,24.2,23.5,24.2"/>
					<path class="st2" d="M23.5,26.6c-0.3,0.1-0.5,0.4-0.4,0.6c0.1,0.3,0.4,0.4,0.7,0.3c0,0,1.6-0.3,2.9-0.3c1.2,0,2.6,0.5,2.6,0.6
						c0.3,0.1,0.6,0,0.7-0.3c0.1-0.3,0-0.5-0.3-0.6c-0.1,0-1.6-0.6-3-0.6C25.2,26.3,23.5,26.6,23.5,26.6"/>
					<path class="st2" d="M23.5,29c-0.3,0.1-0.5,0.4-0.4,0.6c0.1,0.3,0.4,0.4,0.7,0.3c0,0,1.6-0.3,2.9-0.3c1.2,0,2.6,0.5,2.6,0.5
						c0.3,0.1,0.6,0,0.7-0.3c0.1-0.3,0-0.5-0.3-0.6c-0.1,0-1.6-0.6-3-0.6C25.2,28.7,23.5,29,23.5,29"/>
					<path class="st2" d="M23.5,31.5c-0.3,0.1-0.5,0.4-0.4,0.6c0.1,0.3,0.4,0.4,0.7,0.3c0,0,1.6-0.3,2.9-0.3c1.2,0,2.6,0.6,2.6,0.6
						c0.3,0.1,0.6,0,0.7-0.3c0.1-0.3,0-0.5-0.3-0.6c-0.1,0-1.6-0.6-3-0.6C25.2,31.2,23.5,31.5,23.5,31.5"/>
					<path class="st2" d="M40.4,24.2c0.3,0.1,0.5,0.4,0.4,0.6c-0.1,0.3-0.4,0.4-0.7,0.3c0,0-1.6-0.3-2.9-0.3c-1.2,0-2.6,0.5-2.6,0.6
						c-0.3,0.1-0.6,0-0.7-0.3c-0.1-0.3,0-0.5,0.3-0.6c0.1,0,1.6-0.6,3-0.6C38.7,23.8,40.3,24.2,40.4,24.2"/>
					<path class="st2" d="M40.4,26.6c0.3,0.1,0.5,0.4,0.4,0.6c-0.1,0.3-0.4,0.4-0.7,0.3c0,0-1.6-0.3-2.9-0.3c-1.2,0-2.6,0.5-2.6,0.6
						c-0.3,0.1-0.6,0-0.7-0.3c-0.1-0.3,0-0.5,0.3-0.6c0.1,0,1.6-0.6,3-0.6C38.7,26.3,40.3,26.6,40.4,26.6"/>
					<path class="st2" d="M40.4,29c0.3,0.1,0.5,0.4,0.4,0.6c-0.1,0.3-0.4,0.4-0.7,0.3c0,0-1.6-0.3-2.9-0.3c-1.2,0-2.6,0.5-2.6,0.5
						c-0.3,0.1-0.6,0-0.7-0.3c-0.1-0.3,0-0.5,0.3-0.6c0.1,0,1.6-0.6,3-0.6C38.7,28.7,40.3,29,40.4,29"/>
					<path class="st2" d="M40.4,31.5c0.3,0.1,0.5,0.4,0.4,0.6c-0.1,0.3-0.4,0.4-0.7,0.3c0,0-1.6-0.3-2.9-0.3c-1.2,0-2.6,0.6-2.6,0.6
						c-0.3,0.1-0.6,0-0.7-0.3c-0.1-0.3,0-0.5,0.3-0.6c0.1,0,1.6-0.6,3-0.6C38.7,31.2,40.3,31.5,40.4,31.5"/>
					<path class="st2" d="M72.1,52.9c-0.3-1.1-0.9-1.6-1.6-2c-2.1-1.1-4.8-0.3-7.2,0.5C61.6,52,61,52.2,59,52.5
						c-1.5,0.2-6.7,0.9-8.3-0.4c-0.2-0.2-0.5-0.6-0.5-0.9c0-0.6,0.2-1.2,0.4-1.4c0.4-0.5,1.4-0.7,2.9-0.7l4,0.1
						c0.3,0.3,0.9,0.8,2.5,1.2c2.6,0.6,5.4-0.3,5.4-0.3s-0.5-0.1-0.9-0.4c-0.3-0.3-0.3-0.6-0.3-0.6s0.6,0.3,1.4,0.2
						c1,0,1.5-0.5,2.5-0.8c1-0.3,2,0,2,0s-1-1-1.9-1.2c-1-0.2-2.2,0.1-2.2,0.1s0.3-0.1,0.7-0.5c0.3-0.3,0.3-0.7,0.3-0.7
						s-1.1,0.4-2.3,0.4c-1.2-0.1-1.1-0.5-3.3-0.5c-1.7,0-3.1,1-3.7,1.5c-1.8-0.1-3.3-0.2-4.1-0.2c-2.3,0-3.7,0.4-4.5,1.3
						c-0.7,0.7-1,1.7-0.9,2.9c0.1,0.9,0.5,1.7,1.2,2.3c2.2,1.8,8,1.2,10.1,0.9c2.3-0.4,3-0.6,4.3-1l0.1,0c1-0.4,4.2-1.4,5.5-0.7
						c0.3,0.1,0.4,0.4,0.6,0.8c0,0.2,0.1,0.3,0.1,0.5c0,0.3-0.1,0.5-0.3,0.7c-1.2,1.5-5.7,1.7-7.7,1.8c-0.2,0-1.5-0.3-3.3-0.3
						c-1.2,0-2.2,0.1-3.2,0.1c-1.9,0.1-3.8,0.3-7.1-0.1c-1.5-0.2-2.9-0.5-4-0.8c0-0.4-0.2-0.8-0.6-1.2c0.8,0.2,1.8-0.6,2.1-1
						c0,0-1.4-0.4-1.5-1.3c0,0,1,0.1,1.4-1.3c-1-0.5-0.7-0.7-1.1-1.4c-0.4-0.6-1-0.9-1.8-0.9c0.3,0,0.3,0,0.7-0.2
						c0.4-0.2,0.7-0.8,1.1-0.8c-0.8-1.3-3.1-1.5-4.1-1.2c0.3-0.3,0.6-0.6,0.6-1.1c-1.3,0.4-2.5-0.3-3.8-0.1c-1.1,0.2-1.7,0.6-2,1.6
						h-0.1c-0.3-1-0.9-1.4-2-1.6c-1.3-0.2-2.5,0.4-3.8,0.1c0,0.4,0.4,0.8,0.6,1.1c-0.9-0.3-3.2-0.1-4.1,1.2c0.4,0,0.7,0.6,1.1,0.8
						c0.4,0.2,0.4,0.1,0.7,0.2c-0.7,0-1.3,0.3-1.7,0.9c-0.5,0.7-0.2,0.9-1.1,1.4c0.4,1.3,1.4,1.2,1.4,1.3c-0.1,0.9-1.5,1.3-1.5,1.3
						c0.3,0.4,1.3,1.3,2.1,1c-0.6,0.7-0.7,1.3-0.6,2c-1-0.8-2-1.6-2.5-2.3c-0.1-0.2-0.5-1.5-0.8-2.3L23.1,51L23,50.6
						c-0.3-1.1-0.6-2.1-1.1-2.2c-0.3-0.1-0.5-0.1-0.8-0.1c-0.2-0.3-0.4-0.6-0.7-0.7c-0.6-0.2-0.9,0-0.9,0s0.5,0.3,0.6,0.7
						c0.1,0.1,0.1,0.2,0.1,0.3c-0.1,0.1-0.2,0.1-0.3,0.2l0,0c-0.1,0.1-0.1,0.1-0.2,0.2c0,0-0.1,0-0.1,0c-0.6-0.1-0.9,0.1-0.9,0.1
						s0.3,0.2,0.6,0.4c-0.2,0.3-0.4,0.7-0.4,1.2c0,0,0,0.1,0,0.1c-0.6,0-0.8,0.3-0.8,0.3s0.6,0.2,0.9,0.4c0,0,0.1,0.1,0.1,0.1
						c0,0,0,0.1,0,0.1c-0.1,0.2-0.2,0.4-0.2,0.6c0,0.5,0.3,1.1,0.7,1.5c0,0,1.1,0.9,1.2,1c0.4,0.9,0.9,1.8,1.2,2.1
						c0.1,0.1,0.7,1.2,1.4,2.4c0.1,0.2,0.2,0.3,0.3,0.5c0.2,0.7,0.3,1.6,0.4,2.4c0.1,1.3,0,2.7,0,2.7s0.8,0,1.2-0.6
						c0,0,0.3,0.9,0.3,1.9c0,0.8-0.2,1.8-0.2,1.8s0.8-0.4,1.4-1c0.3-0.3,0.6-0.7,0.8-1c0.7,0.4,2.6-0.2,3.6-0.6
						c0.2,0.4,0.5,0.8,0.8,1.3c0.1-0.6,0.8-0.9,1-1.3h0.3c0,0.6-0.2,1.2,0.4,2.4c0.2,0.3,1,1.6,1.6,2.2c-0.2,1.1-0.7,3-1.1,4.6
						c-0.5,1.8-0.9,2.7-1.2,3.2c-0.7,0-1.9,0.1-2.3,0.1c-1,0-1.7,0.2-2.1,0.6c0,0-0.1,0.1-0.1,0.1c-0.3,0-0.7,0.2-0.9,0.4
						C27,79.3,27,79.6,27,79.6s0.5-0.3,0.9-0.3H28v0.1c0,0.1,0.1,0.2,0.1,0.4C28,79.9,28,79.9,27.9,80c-0.4,0.5-0.4,0.8-0.4,0.8
						s0.5-0.3,0.9-0.4c0.1,0.2,0.2,0.4,0.4,0.6c0,0,0,0-0.1,0.1c-0.3,0.5-0.3,0.8-0.3,0.8s0.4-0.3,0.8-0.4c0.1,0.1,0.3,0.3,0.4,0.4
						c0.6,0.5,2,0.2,3.8-0.3l1.1-0.3c0.8-0.1,1.3-0.5,1.7-1.1c0.1-0.1,0.2-0.4,0.3-0.7l0.1-0.3c0.2-0.7,0.4-1.2,0.9-1.9
						c0,0,0.5-0.8,1.2-1.9c0.6-0.5,1.3-1.1,1.8-1.4c0.8-0.5,2.3-1.3,2.3-1.3s-0.4-0.7-1-0.8c0,0,0.8-0.8,1.5-1.1
						c0.8-0.3,1.7-0.5,1.7-0.5s-0.3-0.7-0.9-1.1c0.2-0.1,0.4-0.2,0.7-0.4c1.3-0.9,2.3-0.8,3.2-0.6c0-0.6-0.1-1-0.6-1.3
						c0.4-0.2,0.9-0.3,1.4-0.4c0.3,0.5,0.6,1.1,0.8,1.3c0.7,1,1.7,2.3,2.5,3.1c0,0,0,0.1,0,0.1c0,0.3-0.4,1.3-0.7,1.8l-0.2,0.5
						c0,0-0.8,2-1.1,2.5c-0.5,0-1.9,0.1-2.4,0.1c-0.9-0.1-1.6,0.1-2.1,0.6c-0.1,0.1-0.1,0.1-0.1,0.2c-0.3,0-0.8,0.2-1,0.5
						c-0.4,0.5-0.4,0.8-0.4,0.8s0.5-0.3,0.9-0.4c0.1,0,0.1,0,0.2,0c0,0.1,0.1,0.3,0.2,0.4c-0.1,0.1-0.2,0.1-0.2,0.2
						c-0.3,0.5-0.3,0.8-0.3,0.8s0.5-0.4,0.9-0.4c0,0,0,0,0,0c0.1,0.1,0.2,0.3,0.3,0.4c0,0-0.1,0.1-0.1,0.1c-0.3,0.5-0.3,0.8-0.3,0.8
						s0.5-0.4,0.8-0.4c0.1,0.2,0.2,0.3,0.3,0.4c0.5,0.5,1.7,0.2,3.3-0.3l1.1-0.3c0.8-0.1,1.3-0.4,1.6-1l0.3-0.6
						c0.1-0.3,0.3-0.7,0.4-0.9c0.2-0.3,0.4-0.6,0.6-1c0.3-0.2,0.5-0.4,0.7-0.6c0.5-0.4,1.8-1.1,1.8-1.1s-0.3-0.5-0.8-0.6
						c0,0,0.5-0.6,1.1-0.9c0.5-0.3,1.3-0.4,1.3-0.4s-0.6-0.5-1.1-0.7c-0.2-0.1-0.4-0.1-0.7-0.2c0-0.3-0.2-0.6-0.4-1
						c-0.5-0.7,0.2-2.2,0.7-3.1c0.2,0.3,0.7,0.9,1.4,1.7c0,0,2.3,2.5,2.8,3.1c-0.1,0.4-0.4,1.7-0.9,3.1c-0.4,1-0.9,2.1-1.2,2.6
						c-0.6,0-1.8,0.1-2.3,0.1c-0.9,0-1.6,0.2-2.1,0.6c-0.1,0.1-0.1,0.1-0.2,0.2c-0.3,0.1-0.7,0.2-0.8,0.4c-0.4,0.5-0.4,0.8-0.4,0.8
						s0.4-0.4,0.9-0.4h0.1c0,0.1,0.1,0.3,0.2,0.4c-0.1,0.1-0.2,0.1-0.2,0.2C54,80.7,54,81,54,81s0.5-0.4,0.9-0.4h0
						c0.1,0.2,0.3,0.4,0.4,0.5c0,0,0,0,0,0C55,81.6,55,82,55,82s0.4-0.3,0.7-0.4c0.1,0.1,0.2,0.2,0.3,0.3c0.5,0.5,1.7,0.2,3.3-0.3
						l1.1-0.3c0.8-0.1,1.2-0.4,1.6-1c0.2-0.3,0.9-1.9,1.1-2.4c0.3-0.9,0.7-1.7,1.1-2.5c0.2-0.2,0.4-0.3,0.5-0.4c0.6-0.4,2-1.2,2-1.2
						s-0.3-0.6-0.8-0.6c0,0,0.5-0.5,1.1-0.9c0.5-0.3,1.4-0.5,1.4-0.5s-0.6-0.5-1.1-0.7c-0.3-0.1-0.7-0.2-0.9-0.2
						c-0.1-0.4-0.3-0.5-0.6-0.7c-0.3-0.1-0.6-0.3-1.2-0.9c-0.7-0.8-0.8-2.4-0.8-3.9v-1l0-1.5c-0.1-1.8-0.3-3-0.6-3.8
						c2.3-0.2,6.5-0.7,8.2-2.8c0.5-0.6,0.8-1.4,0.8-2.2C72.3,53.7,72.2,53.3,72.1,52.9"/>
					<path class="st5" d="M36.9,52.6c0,0.1,0.3,2.9,0.3,2.9s-1.5,0.8-1.6,0.9c0,0.1,0,1,0,1c0.1,0.1,0.3,0.3,0.6,0.4
						c0.5,0.2,1,0.1,1,0.1l0.1,0l-0.1,0.4l0,0c0,0-0.6,0.1-1.1,0c-0.4-0.1-0.6-0.3-0.7-0.3h-0.3c-0.1,0-0.3,0.2-0.7,0.3
						c-0.5,0.1-1.1,0-1.1,0l0,0l-0.1-0.4l0.1,0c0,0,0.5,0.1,1-0.1c0.3-0.1,0.6-0.3,0.6-0.4c0-0.1,0-1,0-1c-0.1,0-1.6-1.1-1.6-1.1
						s2.7,0,2.8,0v-3.8l2.2,0l0.3,0C38.8,51.4,36.9,52.5,36.9,52.6 M32,51.4l2.1,0h0.1l-0.1,1.2L32,51.4z M40,51.2
						c0.4-0.3,1.2-1,0.8-1.8c-0.5-0.9-1.6-0.5-1.9-0.4c0,0-2.5-1.1-2.6-1.1c0,0-1,1.1-1,1.1s-1-1.2-1-1.1c0,0-2.5,1.1-2.6,1.1
						c-0.3-0.1-1.4-0.5-1.9,0.4c-0.5,0.9,0.4,1.6,0.8,1.8l0,0c0,0-0.8,1.4-0.8,1.4c0,0,2.3,2.8,2.3,2.8c0,0,0,1.8,0,1.8
						c0,0,0.9,0.6,1,0.6c0.1,0.7,0.2,1,0.4,1.4c0.1,0.1,0.9,0.4,1.8,0.4h0.1c0.9,0,1.7-0.3,1.8-0.4c0.2-0.4,0.2-0.7,0.4-1.4
						c0.1,0,1-0.6,1-0.6v-1.8c0,0,2.3-2.8,2.3-2.8C40.8,52.7,40,51.2,40,51.2L40,51.2z"/>
					<path class="st5" d="M55.7,72c0.3-0.3,0.5-0.4,0.5-0.6c0-0.2-0.1-0.4-0.3-0.7c-0.2-0.3-0.2-0.6-0.2-0.9c0-1.1,0.7-2.5,1-3
						c-0.1-0.1-0.2-0.3-0.3-0.5c-0.1-0.1-0.2-0.1-0.2-0.1c-0.2-0.1-0.7-0.6-1-1c0-0.1-0.1-0.1-0.1-0.2c-0.6,0-2.1-0.1-3.6,0.4
						c0.5,0.3,0.6,0.6,0.6,1.1c-1-0.2-1.8-0.2-2.6-0.1c0.3,0.5,0.5,0.9,0.7,1.1c0.7,0.9,1.7,2.2,2.5,3c0.1,0.1,0.2,0.3,0.2,0.5
						c0,0.5-0.3,1.2-0.7,2.1l-0.2,0.5l-1.2,2.8l-0.2,0c-0.1,0-2,0.1-2.6,0.1c-0.7,0-1.2,0.1-1.5,0.3c0,0.1,0.1,0.3,0,0.5
						c-0.1,0.2-0.2,0.3-0.3,0.4c0,0,0,0.1,0,0.1c0.4-0.1,0.7-0.2,0.7-0.2s0.2,0.3,0.1,0.6c-0.1,0.3-0.2,0.4-0.3,0.5
						c0,0,0,0.1,0.1,0.1c0.4-0.2,0.9-0.2,0.9-0.2s0.2,0.3,0.1,0.7c0,0.2-0.1,0.3-0.2,0.4c0.5,0.2,1.8-0.2,2.7-0.5l1.2-0.3
						c0.6-0.1,1-0.3,1.2-0.8l0.3-0.6c0.1-0.4,0.3-0.7,0.5-1c0.4-0.6,0.8-1.4,1.2-2.2C54.9,73.3,55.4,72.3,55.7,72"/>
					<path class="st5" d="M32.9,64.7L32.9,64.7L32.9,64.7C33,64.7,32.9,64.7,32.9,64.7"/>
					<path class="st5" d="M30.5,61.4c-0.4,0.6-1,0.8-1.9,0.9c0.2-0.9,0-1.5-0.3-2.1c-0.3-0.6-1-1.8-1.3-2.5
						c-0.1-0.2-0.1-0.4-0.2-0.5c-1.2-0.9-2.5-2-3.2-2.8c-0.2-0.2-0.4-1-0.9-2.5l-0.2-0.7l-0.1-0.4c-0.3-1.1-0.6-1.7-0.7-1.8
						c-0.1,0-0.2,0-0.3-0.1v0c0,0-0.1,0.3-0.6,0.3c-0.1,0-0.2-0.1-0.3-0.1c-0.1,0-0.1,0.1-0.1,0.1l0,0c0,0-0.1,0.1-0.1,0.1
						c0.3,0.3,0.6,0.7,0.6,0.7s-0.1,0.4-0.6,0.4c-0.3,0.1-0.6-0.2-0.6-0.2s0-0.1,0-0.3c-0.1,0.3-0.2,0.6-0.1,0.9
						c0.4,0.2,0.8,0.6,0.8,0.6s0,0.3-0.5,0.6c-0.2,0.1-0.4,0-0.5,0c-0.1,0.3,0.1,0.8,0.5,1.2l1.3,1l0,0.1c0.4,0.9,0.9,1.7,1.1,2
						c0.1,0.1,0.5,0.8,1.5,2.5c1.4,2.4,3.5,5.9,4,6.5c0.2,0.2,1.6-0.1,3-0.7C30.2,63.4,30.7,62.6,30.5,61.4"/>
					<path class="st5" d="M71.6,53.1c-0.3-0.9-0.7-1.3-1.3-1.7c-1.9-1-4.4-0.3-6.7,0.5c-1.9,0.7-2.5,0.8-4.5,1.1
						c-2,0.3-7,0.9-8.8-0.6c-0.4-0.3-0.7-0.9-0.7-1.3c-0.1-0.7,0.2-1.5,0.5-1.9c0.5-0.6,1.6-0.9,3.4-0.9c0,0,2.7,0,4.1,0.1l0.3-0.3
						L57.7,48c-1.8-0.1-3.3-0.2-4.1-0.2c-2.2,0-3.4,0.3-4.1,1.1c-0.6,0.6-0.8,1.4-0.7,2.4c0.1,0.8,0.4,1.4,1,1.9
						c1.9,1.5,7.3,1.2,9.6,0.8c2.3-0.4,2.9-0.6,4.2-1l0.1,0c1.2-0.4,4.4-1.5,6-0.7c0.4,0.2,0.7,0.6,0.9,1.2c0.2,0.7,0.1,1.2-0.3,1.7
						c-1.4,1.7-5.8,1.9-8.1,2h0l0,0c0,0-1.4-0.3-3.2-0.4c-1.1,0-2.1,0.1-3.1,0.2c-1.9,0.1-3.9,0.3-7.2-0.1c-1.5-0.2-2.8-0.4-3.9-0.7
						c-0.1,0.4-0.2,0.9-0.5,1.6c-0.2,0.7-1,1.9-1.3,2.5c-0.3,0.7-0.5,1.3-0.3,2.1c-0.9-0.1-1.5-0.4-1.9-0.9
						c-0.3,1.6,0.7,2.6-1.3,5.2c-0.2-0.8-1.3-1-1.2-1.9c-0.4,0.9,0.2,1.5-0.6,3c-0.2,0.4-1.3,2-1.9,2.5c-0.2,1.1-0.7,3-1.1,4.5
						c-0.6,2.1-1.1,3-1.3,3.4l-0.1,0.1l-0.1,0c-0.6,0-2.1,0.1-2.5,0.1c-0.6,0-1.1,0.1-1.5,0.3c0,0.2,0,0.4,0,0.6
						c-0.1,0.2-0.3,0.3-0.4,0.3c0,0,0,0.1,0.1,0.1c0.4-0.1,0.8-0.1,0.8-0.1s0.2,0.4,0,0.8c-0.1,0.2-0.2,0.3-0.2,0.3
						c0,0.1,0.1,0.1,0.1,0.2c0.4-0.2,1-0.3,1-0.3s0.2,0.3,0.1,0.8c0,0.2-0.1,0.2-0.2,0.3c0.6,0.2,2.2-0.3,3.1-0.5l1.2-0.3
						c0.6-0.1,1-0.3,1.3-0.8c0.1-0.1,0.1-0.4,0.2-0.6l0.1-0.3c0.3-0.7,0.5-1.2,1-2.1c1.2-1.9,4.7-7.7,4.9-8.1v-0.1
						c0-0.3-0.1-1-0.3-1.4l-0.1-0.3c0,0,11.4-3.3,12.1-3.5c-0.2-0.4-0.7-1.2-0.7-1.2l0.4-0.4c0,0,0.9,0.7,1.4,1.1
						c0.4,0.4,0.8,1.1,1.3,1.8l0.2,0.4c0.5,0.8,1,1.3,1,1.4l0,0l0,0c0,0,0.4,0.7,1.6,2l3,3.3l0,0.1c0,0-0.4,1.6-1,3.3
						c-0.4,1.1-1,2.3-1.3,2.8l-0.1,0.1l-0.2,0c-0.6,0-2,0.1-2.5,0.1c-0.6,0-1.1,0.1-1.5,0.3c0,0.2,0.1,0.4,0,0.6
						c-0.1,0.2-0.2,0.3-0.3,0.4c0,0,0,0,0.1,0.1c0.4-0.1,0.7-0.2,0.7-0.2s0.2,0.3,0.1,0.7c0,0.2-0.2,0.4-0.3,0.4
						c0,0.1,0.1,0.1,0.1,0.2c0.4-0.2,1-0.3,1-0.3s0.2,0.3,0.1,0.7c0,0.2-0.2,0.3-0.3,0.4c0.6,0.1,1.8-0.3,2.5-0.5l1.2-0.3
						c0.6-0.1,1-0.3,1.2-0.8c0.1-0.2,0.8-1.7,1-2.3c0.7-1.8,1.8-4,2.5-5.2l0.4-0.6c0.2-0.3,0.4-0.6,0.4-0.8c0-0.3,0-0.3-0.3-0.4
						c-0.3-0.1-0.7-0.4-1.3-1.1c-1-1.1-1-3.4-0.9-5.3v-1.5c0-1.9-0.4-3.2-0.6-4l-0.1-0.3l0.4,0c2.1-0.2,6.5-0.6,8.2-2.6
						C71.7,55.1,71.9,54.1,71.6,53.1"/>
					<path class="st3" d="M60.2,30.4c0.2,0.3,0.5,0.7,0.6,1.1c-0.2,0-0.4,0-0.6,0c-0.2,0-0.4,0-0.6,0C59.8,31.1,60,30.7,60.2,30.4"
						/>
					<path class="st5" d="M57.7,30.3c-0.5-0.3-0.8-0.8-1.1-1.3h0c0.6,0,1.1,0.1,1.6,0.3C58,29.6,57.8,30,57.7,30.3 M54.1,29.9
						c0.6,1.3,1.7,2.4,3,3.1c0,0.1,0,0.1,0,0.2c0,1.4,0.5,2.8,1.2,3.9c-0.5,0.2-1.1,0.3-1.6,0.3c-2.3,0-4.2-1.9-4.2-4.2
						C52.4,31.8,53,30.6,54.1,29.9 M63.8,29L63.8,29c-0.3,0.5-0.6,0.9-1.1,1.3c-0.2-0.3-0.3-0.6-0.5-0.9C62.7,29.1,63.3,29,63.8,29
						 M56.6,26.4c-0.2,0-0.4,0-0.5,0c0.3-2.1,2-3.7,4.2-3.7c2.1,0,3.9,1.6,4.2,3.7l-0.5,0c-1.3,0-2.5,0.4-3.6,1
						C59.2,26.7,57.9,26.4,56.6,26.4 M63.4,33c1.3-0.7,2.3-1.8,3-3.1c1,0.8,1.7,2,1.7,3.3c0,2.3-1.9,4.2-4.2,4.2
						c-0.6,0-1.1-0.1-1.6-0.3c0.8-1.1,1.2-2.5,1.2-3.9L63.4,33z M59.7,33.7l0.5,0c0.2,0,0.3,0,0.5,0c-0.1,0.6-0.2,1.1-0.5,1.6
						C60,34.8,59.8,34.3,59.7,33.7 M67,27.2c0-0.1,0-0.2,0-0.2c0-3.8-3.1-6.8-6.8-6.8c-3.8,0-6.8,3.1-6.8,6.8l0,0.2
						c-2.2,1.1-3.6,3.4-3.6,6c0,3.8,3.1,6.8,6.8,6.8c1.3,0,2.5-0.4,3.6-1.1c1.1,0.7,2.3,1.1,3.6,1.1c3.8,0,6.8-3.1,6.8-6.8
						C70.7,30.7,69.2,28.3,67,27.2"/>
					<path class="st3" d="M61.5,33.7c0.4-0.1,0.8-0.2,1.1-0.3c0,1.2-0.4,2.4-1.1,3.4c-0.3-0.2-0.6-0.5-0.8-0.7
						C61.2,35.3,61.4,34.5,61.5,33.7"/>
					<path class="st3" d="M60.2,20.9c3.3,0,6,2.7,6,6.1c0,3.3-2.7,6.1-6,6.1l-0.6,0c0-0.4,0.1-0.7,0.2-1.1l0.4,0c2.7,0,5-2.2,5-5
						c0-2.7-2.2-5-5-5c-2.6,0-4.7,2-4.9,4.5c-0.4,0.1-0.8,0.2-1.1,0.3C54.2,23.6,56.9,20.9,60.2,20.9"/>
					<path class="st3" d="M63.8,27.2l0.5,0c0,0.4-0.1,0.7-0.2,1.1l-0.3,0c-0.7,0-1.5,0.2-2.1,0.5c-0.3-0.3-0.5-0.6-0.8-0.8
						C61.8,27.4,62.8,27.2,63.8,27.2"/>
					<path class="st3" d="M56.6,39.3c-3.3,0-6.1-2.7-6.1-6.1c0-3.3,2.7-6.1,6.1-6.1c2.4,0,4.5,1.4,5.5,3.5c-0.3,0.2-0.7,0.3-1,0.4
						c-0.8-1.7-2.5-2.8-4.5-2.8c-2.7,0-5,2.2-5,5c0,2.7,2.2,5,5,5c0.7,0,1.5-0.2,2.1-0.5c0.3,0.3,0.5,0.6,0.8,0.8
						C58.6,39,57.6,39.3,56.6,39.3"/>
					<path class="st3" d="M55.7,29.1c0.4,0.8,1,1.4,1.7,1.9c-0.1,0.4-0.2,0.8-0.3,1.1c-1.1-0.6-1.9-1.6-2.4-2.7
						C55,29.3,55.4,29.2,55.7,29.1"/>
					<path class="st3" d="M63.8,39.3c-3.3,0-6.1-2.7-6.1-6.1c0-1.3,0.4-2.5,1.1-3.5c0.3,0.2,0.6,0.4,0.8,0.7
						c-0.6,0.8-0.9,1.8-0.9,2.8c0,2.7,2.2,5,5,5c2.7,0,5-2.2,5-5c0-1.6-0.8-3.1-2.1-4.1c0.1-0.4,0.2-0.7,0.3-1.1
						c1.8,1.1,3,3.1,3,5.2C69.9,36.6,67.2,39.3,63.8,39.3"/>
				</g>
				<rect x="209.3" y="17.2" class="st2" width="1.1" height="80.2"/>
			</g>
		</g>
		<g>
			<line class="st6" x1="-23" y1="97.3" x2="424.9" y2="97.3"/>
			<g>
				<line class="st6" x1="-22.8" y1="17.2" x2="424.9" y2="17.2"/>
				<line class="st6" x1="13.8" y1="-18.3" x2="13.8" y2="132.7"/>
				<line class="st6" x1="390.6" y1="-18.3" x2="390.6" y2="132.9"/>
				<line class="st6" x1="227.9" y1="-18.3" x2="227.9" y2="132.7"/>
			</g>
			<polygon class="st6" points="-23.1,132.8 -23.1,-18.3 -23,-18.3 425,-18.3 425,132.9 -23,132.9 			"/>
		</g>
	</g>
	<g>
		<path class="st2" d="M281.2,73.2c-1.6-0.4-1.7-1.7-1-3.9l10.2-27.6h-13.9l-1.2,3.1c0,0,3.6,0,4.3,0c1.4,0,1.8,0.2,0.9,2.3
			c-0.2,0.5-9.1,24.2-9.2,24.8c-0.2,0.6-0.3,0.9-0.3,1.9c0,2.5,2.1,4.2,5.8,4.2c4.5,0,8.5-2.1,8.5-2.1l1.6-4.2
			C285,72.8,282.7,73.6,281.2,73.2z"/>
		<path class="st2" d="M352.3,48.7l2.3-6.4c0,0-12.1-2.5-21.2,1c-6.1,2.3-8.2,7.3-8.2,9.9c0,7.9,16.3,9,16.3,14.3
			c0,3.9-3.9,6.5-10.1,6.5c-6.2,0-11.1-2.6-11.1-2.6l-2.1,5.5c0,0,4.7,1.2,10.6,1.2c3.3,0,7-0.5,10.5-1.4c6.7-1.8,11.2-7,11.2-11.8
			c0-4.7-6.3-7.2-8.5-8.2c-6.1-2.7-7.8-3.9-7.8-6.2c0-1.5,1.1-3.2,2.8-4.4c1.7-1.1,4.1-1.5,5.8-1.5c3.2,0,4.9,0.7,5.9,1.4
			c2,1.3,1.1,2.7,1.1,2.7H352.3z"/>
		<path class="st2" d="M311.1,56.8c-6.1-2.7-7.8-3.9-7.8-6.2c0-1.5,1.1-3.2,2.8-4.4c1.7-1.1,4.1-1.5,5.8-1.5c3.2,0,4.9,0.7,5.9,1.4
			c2,1.3,1.1,2.7,1.1,2.7h2.3l2.3-6.4c0,0-12.1-2.5-21.2,1c-6.1,2.3-8.2,7.3-8.2,9.9c0,7.9,16.3,9,16.3,14.3c0,3.9-3.9,6.5-10.1,6.5
			c-6.2,0-11.1-2.6-11.1-2.6l-2.1,5.5c0,0,4.7,1.2,10.6,1.2c3.3,0,7-0.5,10.5-1.4c6.7-1.8,11.2-7,11.2-11.8
			C319.6,60.2,313.3,57.7,311.1,56.8z"/>
		<path class="st7" d="M263.2,31.8c0,0-1.6-3.3,2.4-7.9c5.1-5.8,10-6,10-6l0.4-0.8c0,0-7.3,0-14.6,7.3c-5.4,5.4-5.3,10.5-5.3,10.5
			L263.2,31.8z"/>
		<path class="st8" d="M275.8,18.4l-3.6,6.1c0,0,5.3-1.4,6.7,2.1c1.6,4.2-3,8.6-3,8.6l0.5,0.4c0,0,6.2-5.3,6.2-11.3
			C282.6,18.1,275.8,18.4,275.8,18.4z"/>
		<path class="st2" d="M271.9,32.2c0,0-5.1,6-11.4,6.1c-4.2,0.1-4.8-2.9-4.8-2.9l-0.9,0.4c0,0-0.1,5.5,6.9,5.5
			c7.1,0,13.7-5.9,13.7-5.9L271.9,32.2z"/>
		<g>
			<path class="st2" d="M227.9,91.3h1.2v6h-1.2V91.3z"/>
			<path class="st2" d="M231.6,91.3h1.5l2.3,4.5h0v-4.5h1.2v6H235l-2.3-4.5h0v4.5h-1.2V91.3z"/>
			<path class="st2" d="M242.3,92.4c-0.4-0.2-0.8-0.3-1.2-0.3c-0.4,0-0.9,0.2-0.9,0.8c0,1,2.6,0.6,2.6,2.6c0,1.3-1,1.8-2.3,1.8
				c-0.7,0-0.9-0.1-1.5-0.2l0.1-1.1c0.4,0.2,0.9,0.4,1.4,0.4c0.5,0,1.1-0.2,1.1-0.8c0-1.1-2.6-0.7-2.6-2.7c0-1.3,1-1.8,2.1-1.8
				c0.5,0,1,0.1,1.4,0.2L242.3,92.4z"/>
			<path class="st2" d="M246.2,92.3h-1.7v-0.9h4.7v0.9h-1.7v5.1h-1.2V92.3z"/>
			<path class="st2" d="M251,91.3h1.2v6H251V91.3z"/>
			<path class="st2" d="M255.8,92.3h-1.7v-0.9h4.7v0.9H257v5.1h-1.2V92.3z"/>
			<path class="st2" d="M260.7,91.3h1.2v3.5c0,1,0.3,1.7,1.2,1.7c0.9,0,1.2-0.7,1.2-1.7v-3.5h1.2v3.8c0,1.6-0.9,2.3-2.5,2.3
				c-1.5,0-2.5-0.7-2.5-2.3V91.3z"/>
			<path class="st2" d="M269.3,92.3h-1.7v-0.9h4.7v0.9h-1.7v5.1h-1.2V92.3z"/>
			<path class="st2" d="M274.2,91.3h3.6v0.9h-2.3v1.5h2.1v0.9h-2.1v1.7h2.4v0.9h-3.6V91.3z"/>
			<path class="st2" d="M286.5,91.2c1.9,0,2.9,1.3,2.9,3.1c0,1.8-1,3.1-2.9,3.1c-1.9,0-2.9-1.3-2.9-3.1
				C283.6,92.5,284.6,91.2,286.5,91.2z M286.5,96.5c1.2,0,1.7-1.1,1.7-2.2c0-1.1-0.5-2.1-1.7-2.1c-1.2,0-1.7,1.1-1.7,2.1
				C284.8,95.4,285.3,96.5,286.5,96.5z"/>
			<path class="st2" d="M291.8,91.3h3.3v0.9H293v1.5h2v0.9h-2v2.6h-1.2V91.3z"/>
			<path class="st2" d="M304.2,92.4c-0.4-0.2-0.8-0.3-1.2-0.3c-0.4,0-0.9,0.2-0.9,0.8c0,1,2.6,0.6,2.6,2.6c0,1.3-1,1.8-2.3,1.8
				c-0.7,0-0.9-0.1-1.5-0.2l0.1-1.1c0.4,0.2,0.9,0.4,1.4,0.4c0.5,0,1.1-0.2,1.1-0.8c0-1.1-2.6-0.7-2.6-2.7c0-1.3,1-1.8,2.1-1.8
				c0.5,0,1,0.1,1.4,0.2L304.2,92.4z"/>
			<path class="st2" d="M308.5,95l-2.2-3.6h1.4l1.4,2.5l1.4-2.5h1.3l-2.2,3.6v2.4h-1.2V95z"/>
			<path class="st2" d="M317.2,92.4c-0.4-0.2-0.8-0.3-1.2-0.3c-0.4,0-0.9,0.2-0.9,0.8c0,1,2.6,0.6,2.6,2.6c0,1.3-1,1.8-2.3,1.8
				c-0.7,0-0.9-0.1-1.5-0.2l0.1-1.1c0.4,0.2,0.9,0.4,1.4,0.4c0.5,0,1.1-0.2,1.1-0.8c0-1.1-2.6-0.7-2.6-2.7c0-1.3,1-1.8,2.1-1.8
				c0.5,0,1,0.1,1.4,0.2L317.2,92.4z"/>
			<path class="st2" d="M321,92.3h-1.7v-0.9h4.7v0.9h-1.7v5.1H321V92.3z"/>
			<path class="st2" d="M326,91.3h3.6v0.9h-2.3v1.5h2.1v0.9h-2.1v1.7h2.4v0.9H326V91.3z"/>
			<path class="st2" d="M332,91.3h1.9l1.4,4.6h0l1.4-4.6h1.9v6h-1.2v-5h0l-1.6,5h-1.2l-1.6-5l0,0v4.9H332V91.3z"/>
			<path class="st2" d="M344.6,92.4c-0.4-0.2-0.8-0.3-1.2-0.3c-0.4,0-0.9,0.2-0.9,0.8c0,1,2.6,0.6,2.6,2.6c0,1.3-1,1.8-2.3,1.8
				c-0.7,0-0.9-0.1-1.5-0.2l0.1-1.1c0.4,0.2,0.9,0.4,1.4,0.4c0.5,0,1.1-0.2,1.1-0.8c0-1.1-2.6-0.7-2.6-2.7c0-1.3,1-1.8,2.1-1.8
				c0.5,0,1,0.1,1.4,0.2L344.6,92.4z"/>
			<path class="st2" d="M354.2,92.4c-0.4-0.2-0.8-0.3-1.2-0.3c-0.4,0-0.9,0.2-0.9,0.8c0,1,2.6,0.6,2.6,2.6c0,1.3-1,1.8-2.3,1.8
				c-0.7,0-0.9-0.1-1.5-0.2l0.1-1.1c0.4,0.2,0.9,0.4,1.4,0.4c0.5,0,1.1-0.2,1.1-0.8c0-1.1-2.6-0.7-2.6-2.7c0-1.3,1-1.8,2.1-1.8
				c0.5,0,1,0.1,1.4,0.2L354.2,92.4z"/>
			<path class="st2" d="M361.4,97.3c-0.4,0.1-0.9,0.2-1.4,0.2c-1.9,0-3.3-1-3.3-3c0-2.1,1.3-3.2,3.3-3.2c0.4,0,0.9,0.1,1.4,0.2
				l-0.1,1c-0.5-0.3-0.9-0.3-1.3-0.3c-1.2,0-2,0.9-2,2.2c0,1.2,0.8,2.1,2,2.1c0.5,0,1-0.1,1.3-0.2L361.4,97.3z"/>
			<path class="st2" d="M363.4,91.3h1.2v6h-1.2V91.3z"/>
			<path class="st2" d="M367.1,91.3h3.6v0.9h-2.3v1.5h2.1v0.9h-2.1v1.7h2.4v0.9h-3.6V91.3z"/>
			<path class="st2" d="M373.1,91.3h1.5l2.3,4.5h0v-4.5h1.2v6h-1.5l-2.3-4.5h0v4.5h-1.2V91.3z"/>
			<path class="st2" d="M384.9,97.3c-0.4,0.1-0.9,0.2-1.4,0.2c-1.9,0-3.3-1-3.3-3c0-2.1,1.3-3.2,3.3-3.2c0.4,0,0.9,0.1,1.4,0.2
				l-0.1,1c-0.5-0.3-0.9-0.3-1.3-0.3c-1.2,0-2,0.9-2,2.2c0,1.2,0.8,2.1,2,2.1c0.5,0,1-0.1,1.3-0.2L384.9,97.3z"/>
			<path class="st2" d="M387.1,91.3h3.6v0.9h-2.3v1.5h2.1v0.9h-2.1v1.7h2.4v0.9h-3.6V91.3z"/>
		</g>
	</g>
</g>
</svg>
